<svg width="214" height="279" viewBox="0 0 214 279" fill="none" xmlns="http://www.w3.org/2000/svg">
<path fill-rule="evenodd" clip-rule="evenodd" d="M93.5608 14.0243C89.5815 21.4415 90.0544 40.2559 95.1973 41.5815C97.2482 42.1102 101.617 40.8152 106.064 38.135L103.273 57.8816H119.754L114.081 31.436C117.245 27.7219 119.386 23.1703 119.028 18.07C117.997 3.37418 97.5402 6.60708 93.5608 14.0243Z" fill="#D4A181"/>
<path fill-rule="evenodd" clip-rule="evenodd" d="M98.4663 0.197266C94.6737 0.197266 91.5992 3.27176 91.5992 7.06434C91.5992 10.7321 94.4746 13.7282 98.0941 13.9215C100.165 14.5604 102.825 15.0295 105.776 15.2273C105.489 16.3037 105.333 17.5278 105.333 18.9111C105.333 20.1322 105.468 21.4272 105.716 22.7422C106.356 21.9815 107.212 21.4852 108.08 21.4852C110.509 21.4852 112.2 23.4836 112.2 25.6054C112.2 28.2983 110.646 30.2465 108.376 30.4023C110.42 34.3251 113.247 37.2795 116.07 37.2795C121.434 37.2795 125.248 30.1084 125.248 22.3982C125.248 22.1274 125.242 21.8585 125.232 21.5915C130.906 25.4843 135.278 33.1592 142.786 33.1592C153 33.1592 157.056 12.558 142.786 12.558C133.081 12.558 128.307 13.9731 124.193 16.0656C123.382 13.7777 122.145 11.8544 120.632 10.5114C120.267 10.1009 119.708 9.70839 118.986 9.34453L118.835 9.26364C118.445 9.0612 118.043 8.89364 117.632 8.76357C115.151 7.85108 111.554 7.20713 107.537 7.06685C106.787 7.04066 106.051 7.03301 105.333 7.04267C105.321 3.25986 102.251 0.197266 98.4663 0.197266Z" fill="#191847"/>
<path fill-rule="evenodd" clip-rule="evenodd" d="M123.874 114.877L72.8476 200.184L34.5923 272.305H26.3524L90.4498 114.877L123.874 114.877Z" fill="#BA8B72"/>
<path fill-rule="evenodd" clip-rule="evenodd" d="M39.6305 268.975C40.3987 271.026 40.7828 272.56 40.7828 273.578C40.7828 274.817 40.5765 276.624 40.1639 279C38.7274 279 25.8169 279 1.43241 279C0.425915 275.672 1.00692 273.876 3.17543 273.61C5.34394 273.345 7.14536 273.106 8.57969 272.892L26.5817 264.866C26.9281 264.712 27.3341 264.868 27.4885 265.214C27.4912 265.22 27.4937 265.226 27.4962 265.232L28.6534 268.039C30.6609 268.975 32.2921 269.444 33.5472 269.444C34.5669 269.444 35.9752 269.032 37.772 268.208L37.772 268.208C38.4615 267.892 39.2767 268.195 39.5928 268.884C39.6064 268.914 39.619 268.944 39.6305 268.975Z" fill="#E4E4E4"/>
<path fill-rule="evenodd" clip-rule="evenodd" d="M45.2168 260.756L29.3264 255.949C36.2884 235.136 44.8214 212.233 54.9253 187.238C65.0292 162.244 75.8804 138.123 87.4789 114.877H132.359C119.464 144.282 105.794 171.001 91.3478 195.033C76.9019 219.065 61.5249 240.973 45.2168 260.756Z" fill="#DB2721"/>
<path fill-rule="evenodd" clip-rule="evenodd" d="M127.228 114.877C132.044 144.855 141.333 183.155 142.209 184.336C142.794 185.124 163.832 192.174 205.325 205.486L203.545 212.752C154.065 205.613 127.993 200.074 125.33 196.135C121.334 190.228 101.386 143.556 93.6593 114.877H127.228Z" fill="#D4A181"/>
<path fill-rule="evenodd" clip-rule="evenodd" d="M190.739 199.205L187.604 210.907C150.596 214.153 127.92 211.808 119.577 203.871C111.234 195.935 101.725 166.27 91.0505 114.877H133.847C140.61 156.961 144.391 178.886 145.19 180.653C145.989 182.42 161.172 188.604 190.739 199.205Z" fill="#FF4133"/>
<path fill-rule="evenodd" clip-rule="evenodd" d="M203.293 202.458C205.446 202.058 207.024 201.946 208.026 202.123C209.246 202.338 210.99 202.855 213.258 203.674C213.008 205.088 210.766 217.803 206.532 241.817C203.08 242.23 201.412 241.346 201.527 239.164C201.643 236.983 201.72 235.167 201.758 233.717L196.981 214.595C196.889 214.227 197.113 213.855 197.48 213.763C197.487 213.761 197.493 213.76 197.499 213.758L200.465 213.106C201.736 211.292 202.48 209.767 202.698 208.531C202.875 207.526 202.714 206.068 202.215 204.155L202.215 204.155C202.023 203.421 202.463 202.671 203.197 202.48C203.229 202.471 203.261 202.464 203.293 202.458Z" fill="#E4E4E4"/>
<path fill-rule="evenodd" clip-rule="evenodd" d="M151.363 93.898L136.326 93.9544C152.815 131.06 161.412 150.488 162.119 152.238C163.708 156.176 160.345 162.173 158.907 165.396C163.59 167.492 163.091 159.731 168.999 162.479C174.392 164.988 178.494 169.534 184.724 165.69C185.49 165.217 186.33 163.437 184.301 162.047C179.249 158.582 171.968 152.519 170.984 150.523C169.642 147.801 163.102 128.926 151.363 93.898ZM23.8258 80.7582C26.8638 83.2909 29.9464 86.0925 29.4051 87.4442C28.8638 88.7958 26.0385 88.2929 25.5704 90.3719C25.2584 91.7578 29.8437 91.983 39.3264 91.0475L61.3264 99.7696L66.191 87.6222L39.0778 83.9239C33.6541 80.9071 28.6645 78.8648 24.1091 77.7969C22.8271 77.7595 20.7878 78.2255 23.8258 80.7582Z" fill="#BA8B72"/>
<path fill-rule="evenodd" clip-rule="evenodd" d="M110.175 46.2067L98.4015 46.9911C95.5019 73.2241 79.7079 89.794 44.3462 84.1844L39.6482 117.967C72.6991 122.238 101.685 109.006 107.625 73.1795C109.163 63.9052 110.377 54.2535 110.175 46.2067Z" fill="#AFB9C5"/>
<path fill-rule="evenodd" clip-rule="evenodd" d="M115.993 42.7734L115.984 42.7844L98.1451 46.8698C98.1451 77.2445 88.5661 96.734 83.5104 119.009L83.3586 119.685L131.536 119.685C132.214 127.479 132.631 135.491 132.848 143.719H168.921C160.747 100.226 143.494 66.5774 117.161 42.7734H115.993Z" fill="#C5CFD6"/>
<path fill-rule="evenodd" clip-rule="evenodd" d="M123.934 75.9141C125.176 95.0327 124.446 109.623 121.744 119.685L131.535 119.684C130.221 104.582 127.923 90.2946 124.188 76.8207L123.934 75.9141Z" fill="black" fill-opacity="0.1"/>
</svg>
