<svg width="32" height="44" viewBox="0 0 32 44" fill="none" xmlns="http://www.w3.org/2000/svg">
<path fill-rule="evenodd" clip-rule="evenodd" d="M29.9394 43.0301C29.8451 42.1543 29.787 41.2724 29.7537 40.3923C29.7204 39.5131 29.764 38.6232 29.7831 37.7437C29.822 35.9546 29.8854 34.1612 29.743 32.3749C29.6084 30.6866 29.2995 29.0101 28.812 27.3879C28.5746 26.5979 28.3244 25.7761 27.934 25.0461C27.5414 24.3122 26.9195 23.8235 26.2363 23.3753C25.509 22.8981 24.7876 22.4119 24.0631 21.9303C23.455 21.526 22.3606 21.0554 21.8616 20.515C21.3366 19.9463 21.2379 18.5366 20.8882 17.8629C20.5477 17.2067 19.5838 16.7787 18.8417 16.7787C17.6132 16.7787 16.6824 16.7159 15.6723 17.8527C15.1683 18.4199 15.5693 18.9933 15.0411 19.5377C14.5554 20.0382 13.3133 20.5526 12.6874 20.843C11.9376 21.1909 11.169 21.498 10.3892 21.7715C9.59374 22.0506 8.77824 22.2586 7.97832 22.522C7.21158 22.7744 6.21038 23.815 5.61514 24.3656C5.06175 24.8775 4.92441 24.8202 4.5037 25.442C3.58038 26.8068 2.65605 28.1872 1.92078 29.6648C1.55454 30.4008 1.19992 31.175 1.06704 31.9924C0.925303 32.8643 1.06584 33.7068 1.2957 34.5509C1.52967 35.4099 2.27268 36.2278 2.51473 37.0847C2.62628 37.4796 2.24338 37.9105 2.4195 38.2826C2.50747 38.4685 2.61824 38.6339 2.74436 38.7959C2.84153 38.9206 3.22049 38.893 3.26952 39.0457C3.31906 39.1999 3.0449 39.52 3.04082 39.6796C3.03503 39.9081 3.02593 40.1365 3.01844 40.3649L2.97414 41.7154C2.94504 42.6029 2.91594 43.4904 2.88684 44.3778C2.87732 44.6675 2.86345 44.9506 2.93288 45.2255C2.90782 45.2022 2.884 45.1769 2.86224 45.1485C2.79856 45.0653 2.66351 45.1358 2.71755 45.2331C2.80777 45.3955 2.9375 45.5098 3.08993 45.5918C3.26706 45.8531 30.0927 46.4366 30.2247 45.6728C30.2987 45.2443 30.1639 44.7855 30.11 44.3597C30.0539 43.9163 29.9873 43.4747 29.9394 43.0301Z" fill="white"/>
<path fill-rule="evenodd" clip-rule="evenodd" d="M2.68965 31.994C2.75528 31.8059 3.05546 31.8873 2.98937 32.0766C2.64963 33.0501 2.89064 34.1095 3.25793 35.0388C3.33163 35.2253 3.03091 35.3054 2.95821 35.1215C2.57185 34.1439 2.33282 33.0164 2.68965 31.994ZM4.96765 37.5547C5.92578 37.6895 6.8847 37.7727 7.84944 37.8399C7.89256 37.843 7.92986 37.8365 7.96211 37.8224C7.93336 38.2644 7.91005 38.7067 7.89179 39.149C7.62875 39.1417 7.36027 39.1591 7.09956 39.1521C6.75881 39.1428 6.41845 39.1257 6.07848 39.0997C5.4203 39.0499 4.76328 38.9706 4.11248 38.861C3.86925 38.8202 3.56036 38.7953 3.28334 38.7145C3.02146 38.6379 2.78834 38.5112 2.66595 38.2725C2.56182 38.0704 2.54278 37.8229 2.54278 37.5994C2.54278 37.4454 2.5692 37.2892 2.58513 37.1341C2.60495 37.1201 2.62282 37.1034 2.6372 37.0847C2.92627 37.176 3.22622 37.2402 3.51995 37.3024C3.99825 37.4042 4.48353 37.4866 4.96765 37.5547ZM4.42724 33.9607C4.43252 34.2578 4.5147 34.5277 4.67458 34.7778C4.78275 34.947 4.51361 35.1028 4.40618 34.9347C4.21797 34.6402 4.12262 34.3096 4.11641 33.9607C4.11283 33.7602 4.42366 33.7608 4.42724 33.9607ZM28.9878 37.2017C29.1175 37.2089 29.2481 37.2134 29.3782 37.2203C29.493 37.3185 29.6519 37.3688 29.797 37.3376C29.802 37.3501 29.8066 37.3642 29.8107 37.3805C29.8364 37.4804 29.8492 37.5876 29.864 37.6895C29.8787 37.7898 29.89 37.8909 29.8978 37.9919C29.9016 38.0428 29.9261 38.1579 29.895 38.2022C29.8671 38.2422 29.8053 38.2387 29.7625 38.2438C29.6475 38.2562 29.531 38.2621 29.4152 38.2718C29.1965 38.2908 28.9777 38.3098 28.7593 38.3289C28.5453 38.3476 28.3102 38.3417 28.1008 38.3981C28.065 37.9779 28.0324 37.5578 28.0021 37.1372C28.3265 37.185 28.6657 37.1838 28.9878 37.2017ZM1.78549 36.5048C1.91604 36.757 2.03648 37.005 2.28631 37.1566C2.31895 37.1761 2.35547 37.1865 2.39277 37.1893C2.3648 37.3094 2.34731 37.4322 2.33177 37.5457C2.29758 37.7957 2.2902 38.0541 2.35275 38.3005C2.41375 38.5404 2.51477 38.7546 2.71293 38.9081C2.80501 38.9796 2.90564 39.034 3.01132 39.0771C2.99345 39.1273 2.98296 39.1771 2.9884 39.2319C2.96315 39.3589 2.94644 39.4884 2.92818 39.6124C2.88816 39.8876 2.84814 40.1631 2.81667 40.4399C2.75372 40.9903 2.70438 41.5407 2.66281 42.093C2.62123 42.6438 2.59132 43.1953 2.56645 43.7473C2.55363 44.0295 2.54236 44.3116 2.53187 44.5942C2.52138 44.8846 2.47436 45.1815 2.60258 45.4509C2.70593 45.6686 3.05523 45.6561 3.16247 45.4509C3.29845 45.1901 3.25844 44.8803 3.26193 44.5942C3.26543 44.3248 3.27009 44.0551 3.27592 43.7857C3.28758 43.2342 3.30467 42.683 3.31827 42.1315C3.33148 41.5932 3.3478 41.0552 3.35868 40.5168C3.36412 40.235 3.36451 39.9532 3.36606 39.6714C3.36684 39.5152 3.37344 39.3485 3.36179 39.1856C3.45892 39.2085 3.55683 39.228 3.65358 39.2478C4.39219 39.3994 5.13857 39.5098 5.88962 39.5782C6.26689 39.6124 6.64532 39.6365 7.02376 39.6501C7.30195 39.6602 7.59025 39.6796 7.87271 39.6692C7.85057 40.3439 7.84046 41.019 7.84163 41.6942C7.84241 42.1812 7.84901 42.6682 7.86106 43.1553C7.86766 43.4114 7.8731 43.6676 7.88087 43.9237C7.88437 44.0388 7.88437 44.155 7.89214 44.2696C7.89447 44.3054 7.89952 44.34 7.90613 44.3742C7.88048 44.4469 7.85911 44.5188 7.84163 44.5861C7.75615 44.9125 7.75615 45.2263 7.79423 45.5589C7.82687 45.8411 8.06426 46.1027 8.37781 46.0036C8.42871 45.9877 8.47961 45.9709 8.53012 45.9538C8.9917 46.0063 9.45601 46.0184 9.92419 46.0273C10.6084 46.0406 11.293 46.0448 11.9776 46.0483C13.3204 46.0553 14.6636 46.0588 16.0068 46.0627C18.7059 46.0704 21.4051 46.0778 24.1043 46.0856C24.8534 46.088 25.6025 46.0899 26.3516 46.0923C26.7393 46.0934 27.1263 46.0938 27.5137 46.1086C27.6944 46.1156 27.8754 46.1253 28.0561 46.128C28.2655 46.1315 28.4509 46.0712 28.651 46.0165C28.764 45.9849 28.8087 45.8714 28.7846 45.7755C28.9657 45.8186 29.1852 45.7269 29.247 45.5228C29.292 45.3747 29.2753 45.2142 29.2081 45.077V45.0766C29.0783 44.2568 28.9136 43.441 28.7842 42.6208C28.6424 41.7226 28.506 40.8224 28.386 39.9206C28.2958 39.2396 28.2216 39.7224 28.1575 39.0383C28.4369 39.06 28.7527 38.975 29.0294 38.9388C29.2279 38.9132 29.428 38.8925 29.627 38.8653C29.6122 39.0659 29.6165 39.2703 29.611 39.4627C29.6005 39.8448 29.6052 40.2253 29.6149 40.6074C29.6336 41.3448 29.6751 40.9156 29.7416 41.6499C29.8088 42.3896 29.8912 43.1265 29.991 43.8627C30.0423 44.2417 30.0971 44.6202 30.155 44.9984C30.1818 45.1749 30.2094 45.351 30.2377 45.5275C30.2715 45.7354 30.2824 45.9325 30.4382 46.0887C30.5567 46.2073 30.7988 46.1972 30.8773 46.032C30.9767 45.8232 30.9317 45.6444 30.8948 45.4253C30.8648 45.2491 30.8361 45.0731 30.8077 44.897C30.7471 44.5196 30.6896 44.1418 30.6356 43.7636C30.5315 43.0348 30.4332 42.3048 30.3454 41.5741C30.2568 40.8375 30.1651 41.2678 30.0781 40.5313C30.0341 40.1596 29.9902 39.7888 29.939 39.4184C29.9129 39.228 29.8966 39.0251 29.8624 38.8288C29.8733 38.8272 29.8842 38.8253 29.8951 38.8233C30.1313 38.7802 30.3329 38.6469 30.3924 38.4035C30.4491 38.1707 30.3815 37.9029 30.3337 37.6744C30.2929 37.4797 30.256 37.2312 30.1308 37.0645C30.5722 36.502 30.8592 35.7943 31.0424 35.1139C31.2418 34.3726 31.3253 33.5989 31.343 32.8328C31.3635 31.9454 31.2967 31.063 31.1446 30.1953C31.1411 30.0114 31.1326 29.8276 31.1189 29.644C30.9853 27.8421 30.4242 25.7093 28.6455 24.8674C28.6385 24.8639 28.6311 24.8608 28.6238 24.8577C28.4843 24.6909 28.3102 24.5409 28.1696 24.4006C27.9205 24.1518 27.6602 23.9139 27.3843 23.6947C26.838 23.2606 26.2389 22.9139 25.6161 22.6017C24.9863 22.2857 24.3471 21.9892 23.7317 21.6444C23.1955 21.3435 22.7129 20.9813 22.2548 20.5724C21.74 20.1126 21.3736 19.4926 21.2299 18.8159C21.2225 18.7806 21.17 18.7903 21.1693 18.824C21.1316 20.0644 21.9685 21.1605 22.9317 21.8539C24.0833 22.6822 25.4739 23.0744 26.6418 23.8774C26.9321 24.0768 27.2036 24.3019 27.462 24.5409C27.0661 24.5005 26.6632 24.5261 26.2921 24.6357C26.146 24.6268 25.9992 24.6241 25.8527 24.6171C25.5178 24.6004 25.1825 24.5849 24.8472 24.5701C24.1637 24.5398 23.4799 24.5122 22.7961 24.4881C21.4545 24.4406 20.1124 24.4049 18.7704 24.3812C16.0736 24.3333 13.3732 24.324 10.6768 24.4022C9.94556 24.4232 6.10059 24.2774 5.74469 24.3186C6.26805 23.8654 6.84231 23.4954 7.47368 23.191C8.26358 22.8112 9.0799 22.5578 9.92342 22.3261C11.6606 21.8492 13.4646 21.3894 14.8547 20.1779C15.2002 19.8766 15.5071 19.5303 15.7585 19.1467C15.9986 18.7806 16.2655 18.3118 16.2721 17.8651C16.2768 17.548 15.8354 17.4325 15.6784 17.7042C15.5809 17.8725 15.5327 18.0572 15.4531 18.2336C15.3738 18.4085 15.2798 18.5772 15.1753 18.7386C14.9698 19.0557 14.7149 19.3387 14.4375 19.594C13.8461 20.139 13.1296 20.5382 12.3883 20.8402C10.7052 21.5254 8.86426 21.8146 7.26931 22.718C6.5715 23.1132 5.9036 23.6586 5.48437 24.3543C5.41676 24.3649 5.34955 24.3773 5.28233 24.3913C5.33245 24.3279 5.38296 24.2646 5.43386 24.2016C5.46727 24.1604 5.4156 24.106 5.3748 24.1425C4.5818 24.8484 3.85134 25.6106 3.18928 26.4416C2.55596 27.2369 1.96538 28.0702 1.54731 29.0016C0.79588 30.6745 0.630363 32.588 1.01851 34.3767C1.1242 34.8641 1.27339 35.3414 1.46339 35.8028C1.5613 36.0411 1.66737 36.2758 1.78549 36.5048Z" fill="black"/>
<path fill-rule="evenodd" clip-rule="evenodd" d="M18.9054 1.61486C21.1115 1.61486 23.8746 4.13244 24.6833 5.20377C25.3632 6.10449 25.267 10.7447 25.267 13.4973C25.267 14.073 25.0069 15.1625 24.9125 15.7132C24.5664 17.7311 23.0588 19.4234 20.0749 19.4234C17.6453 19.4234 15.7755 18.6535 13.9675 16.6845C13.555 16.2353 11.5404 17.8434 11.1285 17.2643C10.0523 17.2643 9.15252 7.20586 11.2653 4.18891C13.3782 1.17197 16.6992 1.61486 18.9054 1.61486Z" fill="white"/>
<path fill-rule="evenodd" clip-rule="evenodd" d="M12.2747 2.32337C13.5494 1.16312 15.2477 0.604966 16.9612 0.646167C17.8486 0.667545 18.7329 0.836625 19.571 1.1262C19.9902 1.27157 20.3963 1.46125 20.7844 1.67581C20.9243 1.75295 21.0532 1.84334 21.1774 1.93933L21.2083 1.96344H21.2087C21.5417 2.08315 21.8389 2.2981 22.1086 2.54958C22.649 2.50644 23.1937 2.55502 23.7163 2.72177C24.4437 2.95421 25.117 3.37982 25.5899 3.98424C26.1406 4.68789 26.3238 5.54142 26.2584 6.42251L26.2464 6.57219C26.1817 7.35053 26.066 8.35166 25.4274 8.86308C25.3789 8.90195 25.3253 8.93149 25.2697 8.94937C25.6812 9.65445 26.0188 10.4373 26.2208 11.2279C26.9921 14.2476 26.3992 17.3968 25.4717 20.3073C25.3956 20.5471 25.0331 20.7065 24.8485 20.4721C24.519 20.0531 24.0404 19.7336 23.5019 19.6737C23.1697 19.6368 22.839 19.7036 22.5251 19.5528C22.4019 19.4934 22.283 19.3962 22.1975 19.278C21.6676 19.479 21.0968 19.5738 20.5307 19.5505C19.6017 19.5124 18.6086 19.1906 17.9695 18.4847C17.8669 18.3714 17.8409 18.2442 17.8645 18.1295C17.9447 18.1009 18.027 18.0796 18.1117 18.0663C18.9222 18.5441 19.8156 18.8635 20.7758 18.8835C21.3306 18.8951 21.8717 18.8175 22.3216 18.4709C22.4189 18.3959 22.5084 18.3128 22.5912 18.2236C23.5317 17.6183 24.1948 16.5903 24.5101 15.4891C24.8038 14.4622 24.7677 13.3929 24.6667 12.3395L24.6134 11.7837C24.5357 10.9678 24.4636 10.1496 24.4434 9.33028L24.4495 9.32997C24.6482 9.31714 24.6496 9.00608 24.4495 9.01902C23.932 9.05252 23.4185 8.9676 22.9026 9.0046C22.8983 8.76062 22.8807 8.51773 22.809 8.28241C22.7681 8.14796 22.5341 8.12146 22.5093 8.28241C22.4761 8.49775 22.464 8.71188 22.4604 8.92818C21.6883 8.91792 20.917 8.85293 20.1448 8.87963C20.0024 8.72766 19.957 8.45818 19.8904 8.27071C19.8807 8.24312 19.871 8.21591 19.8609 8.18831C19.8023 8.4562 19.7193 8.71821 19.6101 8.97471L19.4208 8.97535C18.3463 8.98039 17.2499 9.01252 16.2007 9.23575C16.1277 9.17974 16.0843 9.08203 16.0726 8.99329C15.9965 8.41586 15.8879 7.85378 15.6954 7.30351L15.6678 7.22587C15.6656 7.21943 15.6632 7.21259 15.6607 7.20539C15.5189 7.43445 15.3496 7.64795 15.165 7.84677C15.0562 7.96396 14.9422 8.07602 14.8251 8.18489C14.7114 8.31121 14.5938 8.43563 14.4799 8.56235C14.4844 8.5854 14.4883 8.6088 14.4914 8.63262C14.5263 8.89557 14.5299 9.16225 14.5044 9.42621C14.4582 9.90341 14.3235 10.3632 14.1072 10.7886L14.1004 10.8312C14.0675 11.0306 14.0208 11.2366 13.9116 11.3867C14.0478 11.5394 14.1528 11.7217 14.2136 11.9244C14.2678 12.1048 14.0183 12.2611 13.8889 12.1135C13.7861 11.9962 13.672 11.8991 13.5465 11.8217C13.5386 11.8325 13.5243 11.8378 13.5083 11.8288C13.159 11.6348 12.5657 11.6935 12.2168 11.8762C11.7828 12.1032 11.6134 12.5692 11.6615 13.0415C11.7078 13.4928 11.9052 14.0202 12.2879 14.2515C12.4635 14.3576 12.6002 14.3665 12.7867 14.3156C12.8464 14.2994 12.9203 14.2497 12.952 14.225L12.9833 14.2C13.1055 14.1033 13.2194 14.0371 13.3637 14.0346C13.5113 13.9885 13.6597 14.0524 13.7162 14.2073L13.7196 14.2173C13.746 14.2962 13.7942 14.3953 13.7837 14.5158C13.7729 14.6448 13.7138 14.7622 13.6256 14.8567C13.6104 14.873 13.5941 14.8893 13.5774 14.9045C15.0966 16.5498 15.2917 19.1136 14.5126 21.169C14.4788 21.2592 14.4427 21.3482 14.405 21.4364C14.2748 21.7388 13.7736 21.6452 13.7099 21.3455C13.6909 21.2557 13.6699 21.1663 13.647 21.0777C13.6048 20.9139 13.5566 20.7517 13.5021 20.5918L13.4815 20.5319C13.4352 20.3998 13.3921 20.2665 13.3455 20.1343L13.3408 20.1192C13.3391 20.1132 13.3371 20.1063 13.335 20.0986L13.2561 20.2707L13.0164 20.7904C12.9042 21.0329 12.5478 20.9011 12.5345 20.6674L12.5342 20.6594C12.533 20.6163 12.5315 20.5735 12.5288 20.5312C12.5117 20.2136 12.4569 19.905 12.3698 19.603L12.3384 19.642C11.8709 20.2203 11.3221 20.7623 10.5694 20.8958C10.3805 20.9292 10.1668 20.7317 10.2966 20.5409C10.3502 20.462 10.4019 20.3811 10.4509 20.2991C10.4085 20.2793 10.3685 20.2587 10.3316 20.2377C10.046 20.0772 9.80821 19.8486 9.61161 19.5894C9.19471 19.0398 9.04551 18.3479 9.00899 17.6708C8.97014 16.9552 9.03308 16.2008 9.22852 15.5105C9.31322 15.2119 9.42784 14.9255 9.56033 14.6476C9.551 14.6227 9.54207 14.5978 9.53313 14.5729C9.39015 14.1741 9.27281 13.7664 9.17529 13.354C8.97869 12.5214 8.873 11.6624 8.86018 10.8069C8.83687 9.27431 9.10108 7.71722 9.65785 6.288C10.2329 4.81409 11.0978 3.39421 12.2747 2.32337ZM11.5586 15.723C11.453 15.5567 11.1888 15.7066 11.2869 15.8741L11.2905 15.8801C11.458 16.144 11.5365 16.4441 11.6329 16.7383C11.6946 16.9276 11.995 16.8467 11.9324 16.6555L11.9117 16.5917C11.8158 16.2933 11.7284 15.99 11.5586 15.723ZM12.4782 12.5483L12.5484 12.5143C12.7697 12.4087 12.9635 12.3367 13.225 12.4289C13.5751 12.5522 13.95 12.9443 13.7134 13.3249C13.6264 13.4652 13.4717 13.5212 13.3124 13.4881C13.0439 13.4324 12.9746 13.1905 12.8383 12.9919L12.8148 12.9582C12.7317 12.8381 12.6267 12.6719 12.4883 12.6248C12.4569 12.614 12.4436 12.565 12.4782 12.5483ZM12.6756 4.46897L12.6982 4.44871C12.8486 4.31578 12.6279 4.09656 12.4783 4.22871C11.7937 4.8339 11.5559 5.78114 11.2008 6.58845C11.1211 6.76997 11.3888 6.92855 11.4693 6.74548C11.808 5.97511 12.0329 5.05359 12.6756 4.46897ZM20.9025 4.20425C20.7237 4.12361 20.5672 4.38403 20.7391 4.46978L20.7456 4.47284C21.3501 4.74609 21.6073 5.36488 21.8537 5.93936C21.9322 6.12283 22.1999 5.96463 22.1222 5.78272L22.0777 5.67964C21.8207 5.08761 21.5209 4.48416 20.9025 4.20425ZM21.8501 3.83036C21.6605 3.76467 21.5793 4.06474 21.7673 4.13043C22.2798 4.30884 22.6314 4.69364 22.9279 5.13364C23.039 5.29844 23.3083 5.14296 23.196 4.9766C22.8517 4.46587 22.443 4.03714 21.8501 3.83036Z" fill="black"/>
<path fill-rule="evenodd" clip-rule="evenodd" d="M20.8095 16.6942C20.5484 16.5876 20.3153 16.4098 20.1449 16.1827C20.0857 16.1037 20.0703 16.0203 20.0828 15.9441C20.0967 15.8583 20.1475 15.7806 20.2166 15.7285C20.286 15.6762 20.3728 15.6504 20.4567 15.6635C20.5296 15.675 20.6021 15.7149 20.6596 15.7977L20.6716 15.8143C20.7729 15.9514 20.9049 16.0638 21.0553 16.1363C21.2002 16.2062 21.3623 16.2388 21.5301 16.2199C21.8496 16.1838 22.0699 16.0109 22.304 15.7761C22.333 15.7465 22.362 15.7159 22.3912 15.6849C22.4096 15.6567 22.4352 15.6386 22.4636 15.6291C22.4951 15.6186 22.5307 15.6192 22.5634 15.6306C22.5949 15.6416 22.6231 15.6624 22.6419 15.6901C22.6599 15.7165 22.6701 15.7491 22.6668 15.7865C22.6453 16.0298 22.5182 16.2469 22.3376 16.4174C22.137 16.6068 21.8711 16.7378 21.6208 16.7837C21.345 16.8343 21.064 16.7981 20.8095 16.6942ZM21.7509 12.941C22.0443 13.1194 22.4913 13.5355 22.1757 13.9778C21.8042 14.3678 21.2692 13.9206 21.0057 13.7184C20.7612 13.5616 20.4866 13.9647 20.7134 14.1477C22.6181 15.5585 23.3911 12.9877 21.8993 12.7313C21.735 12.703 21.674 12.8858 21.7509 12.941ZM18.3375 11.3C18.3699 10.8975 18.9828 10.8061 19.0437 11.2044C19.0983 11.5612 19.0341 11.889 18.8734 12.2102C18.7199 12.5171 18.334 12.374 18.3049 12.0945C18.2657 11.7199 18.3174 11.5504 18.3375 11.3ZM23.0025 11.1217C23.0879 11.0098 23.2113 10.9334 23.3591 10.9766C23.8208 11.1116 23.6847 11.7674 23.5226 12.0866C23.4344 12.26 23.1496 12.3039 23.0209 12.1513C22.8111 11.9024 22.7106 11.4053 22.9773 11.1601C22.9845 11.1474 22.9926 11.1347 23.0025 11.1217ZM18.8669 9.5386L18.9398 9.52583C19.1655 9.48679 19.4461 9.44927 19.6057 9.63076C19.6904 9.727 19.7195 9.90587 19.6057 9.99799C19.4055 10.1601 19.1842 10.0973 18.9443 10.111C18.7466 10.1223 18.5566 10.1551 18.3662 10.2095C17.9485 10.329 17.6081 10.547 17.2513 10.7865C17.2045 10.8179 17.1567 10.758 17.179 10.7142C17.385 10.3106 17.7841 9.97906 18.1839 9.77698C18.3973 9.66912 18.6308 9.57965 18.8669 9.5386ZM22.5815 9.35779L22.6374 9.36922C23.2449 9.49627 24.0343 9.75006 24.322 10.3471C24.333 10.4315 24.3214 10.4496 24.312 10.4614L24.3088 10.4653C24.3011 10.4754 24.2949 10.4893 24.2583 10.5008C24.2481 10.4984 24.2379 10.4958 24.2275 10.4931C24.0957 10.4586 23.9913 10.4109 23.8903 10.3615L23.7808 10.3075C23.6537 10.2452 23.5255 10.1851 23.3896 10.1408C23.0997 10.0462 22.8015 9.97954 22.4986 9.94395C22.433 9.93624 22.3698 9.91408 22.3199 9.8761C22.2726 9.84005 22.2365 9.79013 22.22 9.72379C22.1986 9.63792 22.2047 9.57292 22.2508 9.49545C22.2854 9.43728 22.335 9.39696 22.3919 9.37381C22.4499 9.3502 22.5159 9.34464 22.5815 9.35779Z" fill="black"/>
<path fill-rule="evenodd" clip-rule="evenodd" d="M25.0271 13.2888C24.7655 13.6404 24.2805 13.7524 23.8332 13.7137C22.8684 13.6208 22.5648 12.5247 22.5331 11.6727C23.1801 11.8548 22.4784 10.5653 24.69 10.4235C25.4696 10.3585 25.2546 10.8295 25.5991 11.1737C25.592 11.896 25.4718 12.6808 25.0271 13.2888ZM20.4318 12.4589C19.8622 15.1274 16.7431 14.4926 16.4155 12.0872C16.718 11.8736 16.6383 11.3461 17.0142 11.155C17.6099 10.7742 18.3546 10.7905 19.0311 10.7994C19.8957 10.8589 20.1422 11.2172 20.5863 11.6081C20.565 11.8693 20.5033 12.1787 20.4318 12.4589ZM26.2627 9.98162C26.2307 9.9763 26.1987 9.97129 26.1667 9.96658C26.1417 9.9524 26.1123 9.94147 26.0782 9.9349C26.0003 9.91512 25.923 9.90179 25.8457 9.8946C24.7372 9.64502 22.1725 9.99939 22.0667 10.9458C21.7137 11.0637 21.4082 10.9581 20.999 10.9686C20.6876 9.66628 15.3031 9.85009 15.0441 10.6352C15.0432 10.635 15.0422 10.6347 15.0412 10.6344C14.7924 10.5574 14.4255 10.576 14.1407 10.5638C13.5326 10.551 12.9238 10.6052 12.3289 10.7335C11.2147 10.9107 9.69419 11.118 10.4691 12.5099C10.4692 12.5101 10.4693 12.5104 10.4695 12.5106L10.4696 12.5105C10.6032 12.6474 10.8298 12.5371 10.8382 12.3518C10.5777 11.6924 11.1661 11.6132 11.6189 11.4237C12.7453 11.0189 13.8922 10.9628 15.0573 11.088C15.145 11.1912 15.278 11.2812 15.4185 11.3284C16.1975 11.4577 15.787 12.0358 16.2794 12.1198C16.1889 14.1349 18.6344 15.2348 20.0514 13.9102C20.6171 13.3569 20.752 12.5371 20.8832 11.7983C20.9525 11.7827 20.9966 11.7448 21.0224 11.6945C21.1892 11.528 21.294 11.3741 21.6238 11.3284C21.9536 11.2826 22.2075 11.3744 22.2419 11.4025C22.2505 11.42 22.2598 11.4375 22.2706 11.455C22.2857 11.481 22.3062 11.5018 22.3295 11.5182C22.0038 13.5248 23.561 14.7938 25.133 13.753C25.816 13.1103 25.9604 12.1262 25.9889 11.2478C26.0815 11.1919 26.1401 11.0836 26.108 10.9474C26.0639 10.7597 26.1674 10.5971 26.3324 10.5155C26.5468 10.4095 26.5089 10.0224 26.2627 9.98162Z" fill="black"/>
</svg>
