<?xml version="1.0" encoding="UTF-8" standalone="no"?>
<svg
   xmlns:dc="http://purl.org/dc/elements/1.1/"
   xmlns:cc="http://creativecommons.org/ns#"
   xmlns:rdf="http://www.w3.org/1999/02/22-rdf-syntax-ns#"
   xmlns:svg="http://www.w3.org/2000/svg"
   xmlns="http://www.w3.org/2000/svg"
   xmlns:sodipodi="http://sodipodi.sourceforge.net/DTD/sodipodi-0.dtd"
   xmlns:inkscape="http://www.inkscape.org/namespaces/inkscape"
   width="113"
   height="113"
   viewBox="0 0 88 113"
   version="1.1"
   id="svg37"
   sodipodi:docname="hosting.svg"
   style="fill:none"
   inkscape:version="0.92.4 (5da689c313, 2019-01-14)">
  <metadata
     id="metadata41">
    <rdf:RDF>
      <cc:Work
         rdf:about="">
        <dc:format>image/svg+xml</dc:format>
        <dc:type
           rdf:resource="http://purl.org/dc/dcmitype/StillImage" />
      </cc:Work>
    </rdf:RDF>
  </metadata>
  <sodipodi:namedview
     pagecolor="#ffffff"
     bordercolor="#666666"
     borderopacity="1"
     objecttolerance="10"
     gridtolerance="10"
     guidetolerance="10"
     inkscape:pageopacity="0"
     inkscape:pageshadow="2"
     inkscape:window-width="3440"
     inkscape:window-height="1377"
     id="namedview39"
     showgrid="false"
     inkscape:zoom="2.0884956"
     inkscape:cx="-40.031779"
     inkscape:cy="56.500001"
     inkscape:window-x="-8"
     inkscape:window-y="-8"
     inkscape:window-maximized="1"
     inkscape:current-layer="svg37" />
  <g
     clip-path="url(#clip0)"
     id="g30"
     transform="matrix(0.8764572,0,0,0.8764572,20.782229,13.944152)">
    <path
       d="m 49.4839,5.25263 c 1.6239,3.0124 1.431,10.65357 -0.6678,11.19197 -0.8369,0.2147 -2.6199,-0.3112 -4.4345,-1.3997 l 1.1389,8.0198 H 38.7949 L 41.1101,12.3242 C 39.8189,10.8157 38.945,8.96714 39.0911,6.89575 39.5119,0.927227 47.8601,2.24023 49.4839,5.25263 Z"
       id="path2"
       inkscape:connector-curvature="0"
       style="clip-rule:evenodd;fill:#eac7a8;fill-rule:evenodd" />
    <path
       d="M 50.1188,6.60517 C 50.0522,6.2147 49.8894,5.78108 49.758,5.41166 49.5886,4.93543 49.3323,4.50605 49.0502,4.10137 48.5192,3.33949 47.8821,2.65148 47.1787,2.08046 45.8939,1.03744 44.2584,0.435814 42.6501,0.631191 41.8381,0.72983 41.0498,1.0381 40.3789,1.5512 39.7727,2.0148 39.1896,2.69724 38.4047,2.74627 37.5506,2.79958 36.7677,2.04934 36.0827,1.58598 35.3104,1.06362 34.4889,0.682981 33.5862,0.535023 32.0741,0.287238 30.6536,0.795684 29.6115,2.03038 c -1.109,1.3139 -1.9151,3.24074 -1.1869,4.98165 0.1354,0.32361 0.3095,0.59644 0.5595,0.82256 0.2292,0.20735 0.5793,0.42796 0.6722,0.75927 0.0987,0.35217 -0.1961,0.8065 -0.3105,1.12428 -0.1638,0.45526 -0.2983,0.93316 -0.2505,1.42806 0.0786,0.8126 0.5917,1.5885 1.1336,2.1226 0.5514,0.5436 1.2301,0.8553 1.955,0.9989 0.484,0.096 0.9786,0.1489 1.4705,0.1129 0.2442,-0.0179 0.4597,-0.0854 0.6963,-0.1391 0.2301,-0.0522 0.3587,0.0086 0.5539,0.1342 0.9069,0.5835 1.882,0.8092 2.9291,0.7224 0.8837,-0.0732 1.9023,-0.2864 2.6232,-0.889 0.8006,-0.6693 0.7847,-1.5922 0.5963,-2.5782 0.1996,0.0984 0.7518,0.1594 0.4218,-0.2331 -0.1307,-0.1554 -0.3777,-0.2186 -0.5454,-0.31 -0.1953,-0.1065 -0.3936,-0.244 -0.5452,-0.4176 -0.6124,-0.70105 0.0061,-2.1277 0.7757,-2.3628 1.1435,-0.34928 1.3995,1.26016 2.2158,1.67648 0.4694,0.23942 0.9603,-0.0878 1.312,-0.42187 0.471,-0.44754 0.792,-1.04042 1.0692,-1.64375 0.2283,-0.49685 0.4408,-1.00069 0.6735,-1.49507 0.1086,-0.23087 0.4848,-0.88352 0.2959,-1.14457 0.819,-0.16254 1.7312,0.17619 2.4366,0.62039 0.2916,0.18364 0.5138,0.3861 0.6693,0.71029 0.0334,0.06946 0.1059,0.27596 0.1969,0.28442 0.1696,0.01577 0.1062,-0.19044 0.0895,-0.28855 z"
       id="path4"
       inkscape:connector-curvature="0"
       style="clip-rule:evenodd;fill:#191847;fill-rule:evenodd" />
    <path
       d="M 37.1138,46.2131 57.9369,80.8596 73.5482,110.15 h 3.3626 L 50.7537,46.2131 Z"
       id="path6"
       inkscape:connector-curvature="0"
       style="clip-rule:evenodd;fill:#dcae92;fill-rule:evenodd" />
    <path
       d="m 71.492,108.798 c -0.3135,0.833 -0.4703,1.456 -0.4703,1.87 0,0.503 0.0842,1.237 0.2526,2.201 0.5862,0 5.8548,0 15.8056,0 0.4108,-1.351 0.1737,-2.08 -0.7113,-2.188 -0.8849,-0.108 -1.62,-0.205 -2.2053,-0.292 l -7.3464,-3.26 c -0.1413,-0.062 -0.307,10e-4 -0.37,0.142 -0.0011,0.002 -0.0021,0.004 -0.0031,0.007 l -0.4723,1.14 c -0.8192,0.38 -1.4849,0.571 -1.997,0.571 -0.4162,0 -0.9909,-0.168 -1.7241,-0.502 v 0 c -0.2814,-0.129 -0.614,-0.006 -0.743,0.274 -0.0056,0.012 -0.0107,0.025 -0.0154,0.037 z"
       id="path8"
       inkscape:connector-curvature="0"
       style="clip-rule:evenodd;fill:#e4e4e4;fill-rule:evenodd" />
    <path
       d="m 69.2124,105.46 6.4846,-1.952 C 72.8559,95.0549 69.3738,85.7529 65.2506,75.6017 61.1273,65.4505 56.6992,55.6543 51.966,46.2131 H 33.6511 c 5.2623,11.9427 10.841,22.7941 16.7361,32.5543 5.8951,9.7602 12.1702,18.6577 18.8252,26.6926 z"
       id="path10"
       inkscape:connector-curvature="0"
       style="clip-rule:evenodd;fill:#db2721;fill-rule:evenodd" />
    <path
       d="m 35.745,46.2131 c -1.9653,12.1751 -5.7559,27.7301 -6.1136,28.2101 -0.2385,0.32 -8.8239,3.1832 -25.7564,8.5895 l 0.72635,2.951 C 24.7933,83.0643 35.4327,80.8148 36.5196,79.2152 38.15,76.8158 46.2907,57.8607 49.4437,46.2131 Z"
       id="path12"
       inkscape:connector-curvature="0"
       style="clip-rule:evenodd;fill:#eac7a8;fill-rule:evenodd" />
    <path
       d="m 9.82739,80.4618 1.27941,4.7528 c 15.1024,1.3183 24.3559,0.3658 27.7606,-2.8575 3.4048,-3.2233 7.2852,-15.2713 11.6412,-36.144 H 33.0443 c -2.7599,17.0919 -4.3028,25.9966 -4.6289,26.7141 -0.326,0.7175 -6.522,3.229 -18.58801,7.5346 z"
       id="path14"
       inkscape:connector-curvature="0"
       style="clip-rule:evenodd;fill:#ff4133;fill-rule:evenodd" />
    <path
       d="M 4.69855,81.7821 C 3.82098,81.6188 3.17791,81.5728 2.76933,81.6443 2.27241,81.7313 1.56194,81.9407 0.637925,82.2727 0.740029,82.8474 1.65766,88.0125 3.39081,97.7681 4.7976,97.9371 5.47716,97.5785 5.42949,96.6923 5.38183,95.8061 5.34992,95.0686 5.33377,94.4797 L 7.27472,86.714 C 7.31207,86.5646 7.22076,86.4131 7.07078,86.3756 7.06822,86.375 7.06564,86.3744 7.06306,86.3738 L 5.85442,86.108 C 5.33588,85.3706 5.032,84.7509 4.9428,84.2487 4.87032,83.8408 4.93549,83.2485 5.13831,82.4718 v 0 C 5.21614,82.1737 5.03672,81.8688 4.73756,81.7908 4.72466,81.7874 4.71165,81.7845 4.69855,81.7821 Z"
       id="path16"
       inkscape:connector-curvature="0"
       style="clip-rule:evenodd;fill:#e4e4e4;fill-rule:evenodd" />
    <path
       d="m 25.9905,42.8718 5.8561,0.0229 c -3.6159,11.6171 -5.5679,17.7811 -5.8561,18.4919 -0.6485,1.5993 0.7237,4.0351 1.3105,5.3441 -1.9112,0.8511 -1.7075,-2.301 -4.1185,-1.1847 -2.2005,1.0189 -3.8745,2.8651 -6.417,1.3038 -0.3126,-0.1919 -0.6551,-0.9147 0.1725,-1.4794 2.0619,-1.4071 5.0332,-3.8697 5.4347,-4.6803 0.5474,-1.1054 1.7534,-7.0448 3.6178,-17.8183 z m 35.2355,-1.0869 7.9384,7.7073 c 2.3098,0.9805 4.2023,2.0632 5.6776,3.2481 0.3318,0.3983 0.693,1.1615 -0.868,0.82 -1.561,-0.3415 -3.2183,-0.6309 -3.5117,-0.1256 -0.2934,0.5052 0.5711,1.2794 0.0289,1.9406 -0.3615,0.4408 -1.5771,-0.9613 -3.6469,-4.2063 l -8.2549,-4.8437 z"
       id="path18"
       inkscape:connector-curvature="0"
       style="clip-rule:evenodd;fill:#eac7a8;fill-rule:evenodd" />
    <path
       d="m 42.6325,18.4159 2.4232,-0.4136 c 4.172,10.3722 11.4558,19.7967 21.8515,28.2734 L 59.0517,55.774 C 48.6572,43.7042 42.2501,31.2515 42.6325,18.4159 Z"
       id="path20"
       inkscape:connector-curvature="0"
       style="clip-rule:evenodd;fill:#191847;fill-rule:evenodd" />
    <path
       d="m 32.0693,48.7231 h 21.578 C 48.6482,36.626 46.1486,26.3497 46.1486,17.8941 l -6.509,-0.9652 c -5.1155,8.188 -6.5601,18.269 -7.5703,31.7942 z"
       id="path22"
       inkscape:connector-curvature="0"
       style="clip-rule:evenodd;fill:#dde3e9;fill-rule:evenodd" />
    <path
       d="m 39.929,16.9289 c 0.5084,0.0174 1.2828,0.0488 2.3231,0.0942 l 1.5729,4.4733 c 0.1663,5.4539 1.1379,16.4452 2.9146,32.9737 l -14.1447,-2e-4 c 0.0371,1.1416 0.0982,2.2939 0.1834,3.4568 H 22.261 C 23.8342,40.2625 29.5793,26.5966 39.4964,16.9289 l 0.0051,0.0047 0.0027,-0.0047 z"
       id="path24"
       inkscape:connector-curvature="0"
       style="clip-rule:evenodd;fill:#2f3676;fill-rule:evenodd" />
    <path
       d="m 36.5531,54.5799 -3.9544,-2e-4 c -0.1731,-5.1195 0.1372,-10.0247 0.9307,-14.7158 0.4027,7.1158 1.4105,12.0211 3.0237,14.716 z"
       id="path26"
       inkscape:connector-curvature="0"
       style="clip-rule:evenodd;fill:#000000;fill-opacity:0.1;fill-rule:evenodd" />
    <path
       d="m 35.7434,45.9343 6.9748,-3.227 v 3.227 z"
       id="path28"
       inkscape:connector-curvature="0"
       style="clip-rule:evenodd;fill:#ffffff;fill-opacity:0.2;fill-rule:evenodd" />
  </g>
  <defs
     id="defs35">
    <clipPath
       id="clip0">
      <rect
         width="88"
         height="112.87"
         id="rect32"
         x="0"
         y="0"
         style="fill:#ffffff" />
    </clipPath>
  </defs>
</svg>
