<svg width="72" height="96" viewBox="0 0 72 96" fill="none" xmlns="http://www.w3.org/2000/svg">
<rect opacity="0.16" x="12" y="-3" width="48" height="24" rx="8" fill="white"/>
<rect opacity="0.64" y="33" width="72" height="30" rx="8" fill="white"/>
<rect opacity="0.16" x="12" y="75" width="48" height="24" rx="8" fill="white"/>
</svg>
