<svg width="160" height="281" viewBox="0 0 160 281" fill="none" xmlns="http://www.w3.org/2000/svg">
<g clip-path="url(#clip0_4269_91123)">
<path fill-rule="evenodd" clip-rule="evenodd" d="M91.4307 13.7414C95.4399 21.2144 94.9635 40.1702 89.7819 41.5058C87.7155 42.0384 83.3136 40.7337 78.8334 38.0334L81.6453 57.9284H65.0404L70.7564 31.284C67.5685 27.542 65.411 22.9561 65.7716 17.8175C66.8104 3.01119 87.4214 6.2684 91.4307 13.7414Z" fill="#57331F"/>
<path fill-rule="evenodd" clip-rule="evenodd" d="M92.9983 17.0965C92.8338 16.1279 92.4318 15.0522 92.1075 14.1358C91.6893 12.9544 91.0565 11.8892 90.3601 10.8853C89.0489 8.99524 87.4761 7.28849 85.7395 5.87193C82.5674 3.28446 78.5295 1.79199 74.5588 2.27667C72.5539 2.52137 70.6077 3.28611 68.9512 4.55898C67.4546 5.70904 66.0151 7.402 64.0771 7.52364C61.9685 7.65589 60.0356 5.79473 58.3444 4.64526C56.4377 3.3494 54.4093 2.40515 52.1808 2.0381C48.4475 1.42341 44.9403 2.68474 42.3674 5.7477C39.6295 9.00715 37.6392 13.7871 39.4372 18.1059C39.7715 18.9087 40.2014 19.5855 40.8185 20.1464C41.3844 20.6608 42.2487 21.2081 42.4782 22.03C42.7219 22.9036 41.9939 24.0307 41.7115 24.819C41.3071 25.9484 40.975 27.134 41.0931 28.3616C41.287 30.3776 42.554 32.3022 43.8918 33.6273C45.2532 34.9757 46.9288 35.749 48.7184 36.1054C49.9134 36.3434 51.1347 36.4747 52.3492 36.3853C52.9521 36.341 53.4842 36.1735 54.0683 36.0403C54.6364 35.9108 54.9539 36.0617 55.4358 36.3732C57.6747 37.8206 60.0821 38.3806 62.6673 38.1654C64.8492 37.9836 67.364 37.4549 69.1439 35.9599C71.1206 34.2996 71.0812 32.0101 70.6161 29.564C71.1089 29.8082 72.4722 29.9594 71.6575 28.9859C71.3348 28.6004 70.725 28.4435 70.3109 28.2167C69.8287 27.9527 69.3392 27.6115 68.9647 27.1808C67.4529 25.4417 68.9799 21.9026 70.8801 21.3193C73.7032 20.4529 74.3353 24.4455 76.3507 25.4783C77.5094 26.0721 78.7216 25.2604 79.5898 24.4317C80.7527 23.3215 81.5453 21.8507 82.2296 20.354C82.7932 19.1214 83.3178 17.8715 83.8923 16.6451C84.1605 16.0724 85.0893 14.4533 84.6229 13.8057C86.645 13.4025 88.8972 14.2428 90.6387 15.3448C91.3585 15.8003 91.9073 16.3026 92.2912 17.1068C92.3735 17.2791 92.5525 17.7914 92.7774 17.8124C93.196 17.8515 93.0395 17.3399 92.9983 17.0965Z" fill="#191847"/>
<path fill-rule="evenodd" clip-rule="evenodd" d="M59.5055 115.354L85.5412 200.47L98.1535 272.857H108.042L94.7155 115.354H59.5055Z" fill="#57331F"/>
<path fill-rule="evenodd" clip-rule="evenodd" d="M59.5055 115.354L85.5412 200.47L98.1535 272.857H108.042L94.7155 115.354H59.5055Z" fill="black" fill-opacity="0.1"/>
<path fill-rule="evenodd" clip-rule="evenodd" d="M50.1913 115.354C51.9597 162.087 49.8786 186.193 49.4828 190.439C49.087 194.685 43.6673 222.216 30.8369 274.282L41.3743 270.663C61.6516 222.911 68.5613 198.093 70.887 191.823C73.2126 185.553 79.3894 160.063 89.4174 115.354H50.1913Z" fill="#57331F"/>
<path fill-rule="evenodd" clip-rule="evenodd" d="M30.9161 270.61C30.1421 272.676 29.755 274.222 29.755 275.248C29.755 276.496 29.9629 278.316 30.3786 280.71C31.8259 280.71 44.8335 280.71 69.4013 280.71C70.4154 277.357 69.83 275.547 67.6452 275.28C65.4604 275.013 63.6454 274.771 62.2003 274.556L44.0629 266.47C43.7139 266.315 43.3049 266.471 43.1493 266.82C43.1466 266.826 43.144 266.832 43.1416 266.839L41.9757 269.667C39.9531 270.61 38.3096 271.082 37.0451 271.082C36.0177 271.082 34.5988 270.667 32.7885 269.837L32.7885 269.837C32.0938 269.519 31.2725 269.824 30.954 270.519C30.9403 270.548 30.9276 270.579 30.9161 270.61Z" fill="#E4E4E4"/>
<path fill-rule="evenodd" clip-rule="evenodd" d="M95.9519 270.61C95.1779 272.676 94.7909 274.222 94.7909 275.248C94.7909 276.496 94.9987 278.316 95.4144 280.71C96.8618 280.71 109.869 280.71 134.437 280.71C135.451 277.357 134.866 275.547 132.681 275.28C130.496 275.013 128.681 274.771 127.236 274.556L109.099 266.47C108.75 266.315 108.341 266.471 108.185 266.82C108.182 266.826 108.18 266.832 108.177 266.839L107.012 269.667C104.989 270.61 103.345 271.082 102.081 271.082C101.053 271.082 99.6346 270.667 97.8244 269.837L97.8244 269.837C97.1296 269.519 96.3083 269.824 95.9898 270.519C95.9761 270.548 95.9635 270.579 95.9519 270.61Z" fill="#E4E4E4"/>
<path fill-rule="evenodd" clip-rule="evenodd" d="M56.0461 115.354L67.116 158.72H100.928L95.8865 115.354H56.0461Z" fill="#69A1AC"/>
<path fill-rule="evenodd" clip-rule="evenodd" d="M49.8193 115.354C46.1769 126.272 45.485 140.727 47.7437 158.72H82.2475L91.7353 115.354H49.8193Z" fill="#89C5CC"/>
<path fill-rule="evenodd" clip-rule="evenodd" d="M28.3504 89.373L43.5005 89.4299C31.9617 126.814 25.8365 146.388 25.125 148.152C23.524 152.119 26.9119 158.162 28.3606 161.409C23.642 163.52 24.1448 155.701 18.1924 158.47C12.7594 160.998 8.62647 165.578 2.34937 161.704C1.57764 161.228 0.731944 159.435 2.77525 158.034C7.86586 154.544 15.2017 148.435 16.1929 146.424C17.5446 143.682 21.5971 124.665 28.3504 89.373ZM124.191 106.677L143.79 125.797C149.493 128.23 154.165 130.915 157.807 133.855C158.627 134.843 159.518 136.736 155.664 135.889C151.81 135.042 147.719 134.324 146.994 135.577C146.27 136.831 148.404 138.751 147.066 140.391C146.173 141.485 143.172 138.007 138.062 129.957L117.681 117.941L124.191 106.677Z" fill="#57331F"/>
<path fill-rule="evenodd" clip-rule="evenodd" d="M74.5156 46.3952L80.4983 45.3691C89.9228 78.6839 138.346 101.393 141.319 113.847C142.409 118.414 139.122 120.723 140.82 122.114L133.043 127.806C131.726 126.27 128.916 129.08 123.048 127.114C117.179 125.148 74.5156 85.8428 74.5156 46.3952Z" fill="#191847"/>
<path fill-rule="evenodd" clip-rule="evenodd" d="M63.875 39.4404L82.51 40.7435C84.0348 40.8502 85.1843 42.1726 85.0777 43.6973L84.5799 50.7853C83.8743 94.9245 109.388 106.177 103.707 123.876C99.0173 138.487 54.1278 154.194 46.3599 139.871C43.2152 134.073 41.7886 127.06 41.6271 119.436C39.6423 125.294 38.0718 130.337 36.9167 134.565C34.9241 141.857 27.1994 143.016 27.1994 145.825L17.0223 143.016C17.7126 139.2 12.9148 137.341 14.2012 128.815C19.965 90.612 35.4511 62.9199 60.6595 45.7384L60.9213 42.0081C61.0279 40.4834 62.3503 39.3338 63.875 39.4404Z" fill="#2F3676"/>
</g>
<defs>
<clipPath id="clip0_4269_91123">
<rect width="158.202" height="280" fill="white" transform="translate(0.898956 0.710938)"/>
</clipPath>
</defs>
</svg>
