<svg width="48" height="48" viewBox="0 0 48 48" fill="none" xmlns="http://www.w3.org/2000/svg">
<path opacity="0.96" fill-rule="evenodd" clip-rule="evenodd" d="M41.3444 8.57681C49.9896 12.2863 48.4073 35.8709 37.1845 43.1277C25.9616 50.3845 1.02858 42.091 1.02858 34.6567C1.02858 27.2225 17.8625 27.2225 22.8063 24.1571C27.7501 21.0917 32.6992 4.86734 41.3444 8.57681Z" fill="#FECA2F"/>
<path opacity="0.72" fill-rule="evenodd" clip-rule="evenodd" d="M16.8339 0.866906C12.7716 2.96833 15.8332 6.65028 20.0828 11.3841C24.3324 16.1179 28.5279 22.1197 32.5901 20.0183C36.6524 17.9169 36.1335 10.367 31.8839 5.63325C27.6343 0.899444 20.8962 -1.23452 16.8339 0.866906Z" fill="#855FFB"/>
<path opacity="0.64" fill-rule="evenodd" clip-rule="evenodd" d="M4.3955 41.6778C4.3955 44.6838 7.35638 48 11.1293 48C14.9023 48 17.8631 44.6838 17.8631 41.6778C17.8631 38.6718 13.5453 37.554 10.4509 37.554C7.35638 37.554 4.3955 38.6718 4.3955 41.6778Z" fill="#FFA336"/>
</svg>
