<svg width="80" height="80" viewBox="0 0 80 80" fill="none" xmlns="http://www.w3.org/2000/svg">
<rect width="80" height="80" rx="40" fill="#855FFB"/>
<path d="M49.2173 37.56V41.256H30.0653V37.56H49.2173Z" fill="white"/>
</svg>
