<svg width="104" height="122" viewBox="0 0 104 122" fill="none" xmlns="http://www.w3.org/2000/svg">
<path fill-rule="evenodd" clip-rule="evenodd" d="M83.4148 94.3751C83.4148 93.634 82.3894 92.3186 82.3876 91.6473C83.2497 91.4932 83.9704 90.3248 83.7794 89.5931C83.443 89.3359 82.5611 88.8294 82.1964 88.5929C79.9742 88.6603 80.8187 85.5676 80.5672 83.9956C80.314 82.4575 80.126 80.8493 79.7554 79.3025C79.0971 78.0648 78.7882 76.6773 78.1591 75.4458C77.8782 75.0377 77.4241 74.6636 77.2881 74.1895C75.9118 72.6856 74.0171 71.7843 72.4578 70.5106C73.0629 70.3168 73.0226 69.5003 72.9835 68.976C73.1243 68.2919 72.9739 67.434 72.3502 67.0486C72.1395 66.3617 71.2183 66.1219 70.6796 66.5595C70.3258 64.973 68.9415 64.0104 67.4913 63.4217C67.4926 63.417 67.4938 63.4125 67.4952 63.4078C66.0327 62.8271 64.2797 62.5377 62.8205 62.8641C63.5908 54.2781 57.0173 53.9629 53.6811 54.6845C51.9747 55.0535 49.4143 56.2025 48.8327 57.7999C48.5043 58.7017 47.562 61.61 47.4278 62.5377C44.8803 61.0834 41.9269 59.1658 39.7173 62.0935C39.2748 62.6038 38.7852 62.9827 38.1231 63.158C36.056 63.6946 33.3122 63.7126 32.1373 65.8207C31.435 67.1267 32.0666 67.9872 31.8779 69.2937C22.5726 75.8309 14.7963 99.9135 16.5423 111.117C16.9623 115.127 19.013 122.224 24.0747 121.339C26.6564 124.164 69.9889 124.164 74.4572 121.339C78.1351 122.301 81.8724 120.812 83.4148 117.288C85.3735 112.455 83.2978 107.237 82.9299 102.28C82.7065 101.028 82.3741 100.035 82.1964 98.7535C82.1223 98.2196 82.3777 97.3314 82.1964 96.8393C82.2819 96.5189 83.4148 95.1161 83.4148 94.3751Z" fill="white"/>
<path fill-rule="evenodd" clip-rule="evenodd" d="M62.9319 60.089C63.0343 60.5275 62.9408 61.0217 62.9579 61.4717C62.9742 61.9017 63.0249 62.3292 63.0997 62.7529C63.8853 62.3395 64.8138 62.2864 65.7092 62.4194C66.8674 62.5916 68.2076 62.9726 69.1153 63.7467C69.3394 63.9379 69.525 64.1643 69.6805 64.4139C69.8671 64.7134 69.9862 65.0517 70.282 65.2663C70.7395 65.5983 71.3068 65.7267 71.7467 66.0946C72.1952 66.4697 72.4736 67.0304 72.5324 67.609C72.5638 67.917 72.513 68.205 72.4546 68.5053C72.4023 68.7756 72.428 68.8865 72.4991 69.1467C72.555 69.351 72.4484 69.5828 72.2746 69.6954C72.6471 69.9512 73.0146 70.2149 73.3757 70.4893C75.4794 72.0865 77.2583 74.0776 78.4915 76.4203L78.5213 76.4785L78.5558 76.5484C78.8563 77.1661 79.6426 78.9718 79.7403 79.3778C79.8101 79.5898 79.8778 79.8026 79.9407 80.0168C80.1068 80.5843 80.2476 81.1588 80.3644 81.7381L80.3956 81.8962C80.4904 82.3827 80.6534 82.9589 80.6271 83.4775C80.9002 84.8932 81.1422 86.3149 81.3487 87.7425C81.3757 87.9295 81.3013 88.0815 81.1858 88.1823C81.462 88.2267 81.7364 88.2813 82.0079 88.3364L82.1656 88.3695L82.2445 88.387C82.8098 88.5145 83.3678 88.7003 83.7381 89.1753C84.1373 89.6892 84.1455 90.3495 83.7445 90.867C83.404 91.3066 82.9068 91.5154 82.3877 91.6473C82.2853 91.6729 82.1817 91.6967 82.0783 91.7177C82.0088 91.7323 81.963 91.6372 82.0288 91.6006L82.139 91.5397L82.2893 91.4573C82.6806 91.2415 83.0867 90.9979 83.3032 90.6087C83.5972 90.0802 83.3645 89.5911 82.8601 89.3228C82.4378 89.0979 81.9155 89.0404 81.4465 88.9635L81.2529 88.9315C80.7626 88.8532 80.2625 88.8024 79.7677 88.8584C79.3346 88.9079 78.8961 89.0554 78.5463 89.32L78.5139 89.3455L78.4804 89.3736C78.1737 89.6395 77.7326 90.2369 78.3111 90.409C78.7533 90.5398 79.2921 90.5073 79.7568 90.5327L79.817 90.5363C80.2061 90.5629 80.6127 90.5629 81.0062 90.6096C81.1472 90.626 81.2865 90.6489 81.4229 90.681C81.8138 90.7735 81.6792 91.2937 81.3349 91.3304C81.2507 91.3395 81.1647 91.344 81.0786 91.3459C80.8534 91.5154 80.5421 91.5923 80.2758 91.6975C80.0213 91.7984 79.7658 91.8982 79.5086 91.9962C79.7301 92.0063 79.9517 92.0246 80.1723 92.0521C80.2436 92.0602 80.2445 92.1565 80.1723 92.1638C79.6412 92.2178 79.1103 92.2765 78.5811 92.3505C77.7618 92.4642 76.9479 92.6162 76.1524 92.8479C75.5709 93.0179 74.9966 93.2204 74.4395 93.4567L74.271 93.5292L74.2014 93.5596C73.6958 93.7788 73.0418 94.0354 72.7512 94.5184C72.5993 94.7702 72.5325 95.1595 72.7468 95.4004C72.9758 95.6599 73.4558 95.6303 73.7767 95.6429L73.8023 95.644C74.4816 95.677 75.1617 95.6815 75.8419 95.6578C77.2674 95.6074 78.6938 95.4517 80.0936 95.1778C80.3518 95.1275 80.4634 95.5149 80.2034 95.5753C78.5523 95.9591 76.883 96.1697 75.1889 96.1795L75.0033 96.1798C74.3434 96.306 73.6962 96.4942 73.0545 96.7067L72.9262 96.7495C72.5472 96.8776 71.8999 97.005 71.6764 97.3813C71.5282 97.6313 71.5803 97.8027 71.7269 97.919C71.985 98.1232 72.5343 98.1616 72.8016 98.1718C73.8727 98.212 74.9448 98.2193 76.0168 98.1964C76.5525 98.1845 77.088 98.1654 77.6236 98.1379C78.1472 98.1104 78.7065 98.0326 79.2284 98.0829C79.4527 98.1048 79.5278 98.4345 79.2843 98.496C78.6407 98.6591 77.919 98.6448 77.2541 98.6656L77.1776 98.6682C76.4636 98.6937 75.7487 98.7048 75.0346 98.703C74.4216 98.7005 73.8088 98.6882 73.1966 98.6656L72.6553 98.6442L72.5594 98.6396C72.2709 98.6241 71.9762 98.5909 71.7205 98.4721C71.4843 98.8677 71.6609 99.398 71.9657 99.7112C72.256 100.01 72.6744 100.156 73.0753 100.248C73.1129 100.256 73.1505 100.264 73.188 100.272C74.0687 100.451 74.9659 100.436 75.7898 100.84C76.4828 101.181 77.1173 101.749 77.8936 101.884C78.5875 102.005 79.0919 101.699 79.4618 101.133C79.482 101.102 79.5022 101.07 79.5214 101.039C79.8124 100.57 80.0221 100.054 80.3289 99.594C80.4854 99.3596 80.6621 99.1343 80.8782 98.9512C80.9751 98.8677 81.6544 98.507 81.7607 98.3989C82.2175 97.9299 81.8129 96.9436 81.9319 96.3557C82.071 95.6714 82.6725 95.4306 83.0332 94.9003C83.7188 93.8911 81.8384 92.9458 82.4006 91.8422C82.408 91.8286 82.417 91.8185 82.4289 91.812C82.4784 91.7855 82.5572 91.8185 82.5526 91.8835C82.4902 92.706 83.274 93.272 83.5569 93.9844C83.8791 94.795 83.3645 95.2859 82.8391 95.8272C82.1653 96.5223 82.6395 97.3008 82.4894 98.1379C82.4698 98.2476 82.4383 98.3443 82.3974 98.4309C82.5126 98.5023 82.6014 98.6206 82.6209 98.7859C82.852 100.746 83.1003 102.7 83.5059 104.632L83.5927 105.043L83.7089 105.591C83.9979 106.961 84.2677 108.337 84.319 109.738C84.4801 110.92 84.544 112.112 84.4486 113.302C84.1593 116.924 82.135 120.714 78.4575 121.825C77.6062 122.083 76.7034 122.15 75.83 121.969C75.5308 121.908 75.1115 121.772 74.7351 121.567C74.7575 121.809 74.7753 122.05 74.7827 122.291C74.9067 122.429 74.9628 122.638 74.8922 122.816C74.5923 122.717 74.3197 122.561 74.0742 122.347L74.0336 122.311C73.888 121.77 73.8455 121.178 73.8243 120.608L73.8188 120.446C73.8132 120.289 73.8096 120.134 73.8041 119.983C73.773 119.042 73.795 118.1 73.8434 117.16L73.8791 116.468C73.9609 114.855 74.0274 113.245 73.9827 111.627C73.9314 109.766 73.7721 107.912 73.5725 106.06C73.469 105.105 73.3519 104.151 73.2319 103.198C73.1358 102.43 72.9747 101.604 72.972 100.813C72.3557 100.681 71.7507 100.428 71.3716 99.911C70.9697 99.3624 70.9103 98.6609 71.2672 98.0984C70.9222 97.6259 71.2051 97.1808 71.6317 96.8804C70.9762 96.5131 70.6109 95.5111 70.5139 94.8143C70.4479 94.3361 70.4269 93.6208 70.631 93.0832C70.3381 93.0934 70.0451 93.1236 69.7522 93.174C69.4133 93.2335 69.0811 93.3204 68.7533 93.4286L68.5873 93.4835C68.5036 93.5116 68.4093 93.5446 68.3157 93.5834C68.9081 94.5632 68.1472 95.4517 67.1713 95.7054C66.9856 95.7538 66.796 95.7878 66.6047 95.8152C66.1735 95.8748 65.7331 95.8931 65.3055 95.9325C64.4872 96.0075 63.6641 96.1148 62.8429 96.1496C62.6625 96.1578 62.5463 96.0736 62.4913 95.9562C62.4896 95.9545 62.4887 95.9535 62.4887 95.9518C62.4694 95.9206 62.4565 95.8876 62.4519 95.8529C62.4548 95.8556 62.4584 95.8574 62.4611 95.8593C62.4217 95.6394 62.5536 95.372 62.8429 95.34C64.0285 95.2062 65.2305 95.1998 66.4197 95.1019L66.4959 95.0955C66.8692 95.0633 67.3089 95.004 67.6044 94.7676C67.8791 94.5478 67.9037 94.2619 67.7938 94.0037C67.792 94.0101 67.7903 94.0174 67.7893 94.0239C67.781 94.0751 67.7106 94.0733 67.6877 94.0375C67.6191 93.9332 67.6016 93.8306 67.6191 93.7316C67.5366 93.6365 67.4369 93.5521 67.3289 93.4871C66.85 93.196 66.2202 93.1163 65.6754 93.0301C65.0795 92.9359 64.4789 92.8927 63.8775 92.8644C62.6937 92.8085 61.5062 92.9047 60.3418 93.1171C60.2932 93.1254 60.2732 93.0577 60.3208 93.0421C60.7748 92.8918 61.2389 92.7655 61.7086 92.6657C61.6976 92.6638 61.6867 92.662 61.6757 92.6592C61.6345 92.6491 61.6051 92.5988 61.6189 92.5585C61.6207 92.552 61.6235 92.5457 61.6263 92.5402C61.4266 92.4486 61.3434 92.1409 61.5851 92.0163C62.3384 91.6271 63.2228 91.4512 64.0496 91.2909C64.8433 91.138 65.6452 91.0308 66.4482 90.9356C67.8058 90.7763 69.2862 90.7799 70.5925 90.3512L70.6462 90.3332C71.1782 90.1497 71.8133 89.7778 71.8505 89.1497C71.9053 88.1999 70.4945 88.4473 69.9068 88.4702C68.2984 88.5315 66.6917 88.6433 65.0905 88.8154C64.7636 88.8503 64.4367 88.8859 64.11 88.9226C63.6092 88.9784 63.1075 89.0371 62.6077 89.0993C62.3284 89.1342 62.0428 89.18 61.7553 89.2239C61.6656 89.2459 61.5777 89.2615 61.4898 89.2697C61.4833 89.2705 61.4779 89.2688 61.4734 89.266C61.055 89.3247 60.6348 89.3694 60.2265 89.3567C60.1797 89.3558 60.1505 89.2824 60.1999 89.2605C60.7272 89.0371 61.3141 88.9052 61.9026 88.8016C62.2671 88.5297 62.7074 88.3117 63.0691 88.1011C63.5653 87.8117 64.1338 87.3858 64.6968 87.2127C64.9503 87.0131 65.2378 86.8528 65.5025 86.7438C65.4265 86.6256 65.399 86.4616 65.4126 86.3234C65.4631 85.8279 65.8595 85.5513 66.3172 85.4542C66.4591 85.425 66.623 85.403 66.7979 85.3947C66.8014 85.3022 66.8426 85.2116 66.9342 85.1438L66.9612 85.1233L66.9804 85.108C67.2877 84.8584 67.8977 84.1556 67.1631 84.1043C66.7732 84.0767 66.4435 84.3626 66.1331 84.5558C65.4886 84.9579 64.8653 84.9779 64.1292 84.8781L63.7983 84.8306L63.7433 84.8232C63.2112 84.7533 62.6713 84.7437 62.3742 85.2866C62.0555 85.8673 61.9439 86.3967 61.3012 86.7163C60.687 87.0213 60.0049 87.0817 59.441 87.5012C58.8367 87.9499 58.3826 88.58 57.8883 89.1387C56.7979 90.3696 55.5501 91.4568 54.2648 92.4789L54.0361 92.6601C52.8524 93.5959 51.6305 94.5173 50.3053 95.2383C50.2961 95.2428 50.2869 95.2447 50.2787 95.2447C50.243 95.2411 50.2164 95.1953 50.2485 95.1641C51.7966 93.6594 53.6075 92.4395 55.1976 90.975C55.9025 90.3257 56.5736 89.6424 57.219 88.9336C57.7829 88.3117 58.2828 87.6129 58.9402 87.0836C59.2596 86.8261 59.6049 86.6293 59.9911 86.4919C60.3519 86.3627 60.7565 86.2986 61.0889 86.1008C61.7398 85.7144 61.6766 84.7985 62.3275 84.3826C62.8856 84.026 63.5655 84.1563 64.1843 84.2409L64.2583 84.2508C64.6593 84.304 65.074 84.3488 65.4567 84.1904C65.8356 84.0338 66.1405 83.7407 66.5222 83.585C67.0542 83.3661 67.8085 83.4183 68.0814 84.0036C68.3422 84.5622 67.9862 85.0678 67.5706 85.4387C68.1372 85.5413 68.6344 85.8151 68.6765 86.3738C69.0921 86.36 69.5068 86.3453 69.9224 86.3307C71.3699 86.2804 72.8245 86.1832 74.2729 86.2089C74.2398 86.0614 74.2252 85.9094 74.2234 85.7547C74.2225 85.6686 74.2262 85.5825 74.2325 85.4946C74.2435 85.3443 74.3424 85.2536 74.4889 85.238L74.8161 85.2031L74.9255 85.1923C75.5384 85.1343 76.2237 85.1221 76.6907 85.5275C76.9415 85.7464 77.1439 86.2501 77.0212 86.5863C77.3067 86.6843 77.5787 86.8096 77.8268 86.9682C78.3184 86.8032 78.8348 86.8216 79.3291 86.9937L79.3878 87.0147C79.7392 87.1438 80.2372 87.3882 80.4282 87.7369C79.9647 84.5939 79.34 81.4777 78.5548 78.3992C78.0536 77.1698 77.4203 75.9946 76.6522 74.9101C74.7178 72.1772 71.931 70.2979 69.4281 68.1374C69.2072 68.3805 68.9694 68.6119 68.7469 68.8345L68.6526 68.9294C68.1994 69.3885 67.7267 69.8278 67.2436 70.2551C66.2339 71.148 65.1711 71.9722 64.1159 72.8096C61.9888 74.4978 60.0656 76.2904 58.4655 78.4944C58.4368 78.5341 58.357 78.5109 58.3793 78.4581C59.4768 75.8482 61.752 73.864 63.8188 72.0229C64.9056 71.0547 66.018 70.1099 67.063 69.0961C67.5502 68.6234 68.0222 68.1344 68.4674 67.6219L68.5781 67.4932C68.8693 67.1524 69.5509 66.1116 70.0015 66.8625C70.0959 67.0196 70.0917 67.2205 70.0015 67.3778C69.8735 67.6012 69.711 67.8143 69.5333 68.019C70.165 68.3628 70.7837 68.7257 71.3888 69.1099C71.354 68.9248 71.3627 68.7202 71.395 68.5155L71.4056 68.4505L71.4497 68.1966C71.5129 67.8224 71.5454 67.4745 71.3081 67.1094C71.0113 66.6528 70.4516 66.5104 70.0058 66.2465C69.4922 65.9424 69.2239 65.5356 68.9489 65.0193C68.4222 64.0308 67.2324 63.6344 66.2097 63.3164L66.081 63.2765C65.1361 62.9835 64.1138 62.8267 63.169 63.1082C63.2577 63.5209 63.3737 63.9277 63.5186 64.324C63.6728 64.7459 64.0252 65.2149 63.9891 65.6705C63.9642 65.9858 63.5861 66.3229 63.2724 66.0819C62.828 65.7409 62.7392 65.1854 62.6201 64.6562C62.5049 64.1444 62.4314 63.6202 62.4001 63.0966C62.37 62.592 62.3935 62.0877 62.4557 61.5865L62.5034 61.2185L62.515 61.133C62.567 60.7609 62.6442 60.3704 62.8534 60.0788C62.8735 60.0508 62.9228 60.0501 62.9319 60.089ZM50.0391 57.997C50.0458 58.0267 50.0505 58.0561 50.0547 58.0855C50.0853 58.211 50.0967 58.3316 50.093 58.4528C50.0948 58.4965 50.0916 58.5402 50.0834 58.5836C50.0671 58.7262 50.0327 58.8725 49.9863 59.0325C49.8875 59.3729 49.7744 59.7092 49.6479 60.0405C49.398 60.6956 49.103 61.3207 48.7382 61.9198C48.0793 63.0021 47.2418 63.9004 46.2543 64.677C46.4417 64.8317 46.6249 64.9926 46.8085 65.1506C47.6957 65.9144 48.5589 66.7128 49.395 67.5323C50.8798 68.9879 52.3348 70.4705 53.7557 71.9886C54.4565 72.7373 55.1443 73.4958 55.8283 74.2595L55.8508 74.2852L55.875 74.3141C56.1179 74.6079 56.6035 75.3088 56.9658 75.1962C57.1487 75.1392 57.3413 74.8662 57.466 74.736L57.6957 74.4964C57.772 74.4163 57.8479 74.3358 57.9224 74.2541C59.2587 72.7894 60.5231 71.2686 61.7103 69.6789C62.2896 68.9033 62.8496 68.1131 63.3893 67.3092C63.6667 66.8958 63.939 66.4788 64.2057 66.0584C64.4637 65.6517 64.6724 65.2147 65.0526 64.9112C65.3316 64.6884 65.7182 64.8927 65.6479 65.2578C65.5371 65.8329 65.1393 66.3192 64.826 66.8053C64.5113 67.2937 64.1893 67.7773 63.86 68.2559C63.2262 69.1772 62.5649 70.0791 61.88 70.9629C61.2902 71.7241 60.6749 72.4656 60.0429 73.1922L59.8702 73.39C59.1904 74.1652 58.5232 74.9882 57.772 75.6958C57.0994 76.3295 56.3648 76.1448 55.7521 75.529C54.9771 74.7504 54.2576 73.9084 53.512 73.1015C52.0219 71.4888 50.5163 69.8885 48.9951 68.3051L48.495 67.784C47.912 67.1752 47.3313 66.5625 46.7658 65.9387L46.6928 65.8573C46.0479 65.1316 45.3921 64.2224 44.4752 63.8534C44.4089 63.8267 44.4333 63.7326 44.5049 63.7458C45.0918 63.8543 45.5818 64.1501 46.0377 64.5035C46.4475 63.8252 46.8131 63.1101 47.1319 62.3787L46.9274 62.2898C45.4641 61.6573 43.8148 61.0195 42.2437 61.122C41.6106 61.1632 40.935 61.4032 40.4979 61.8787C40.102 62.3094 39.9044 62.8903 39.5411 63.349C39.125 63.8744 38.5823 64.1109 37.9163 64.1323L37.5924 64.1421C37.2199 64.1542 36.8627 64.1737 36.4849 64.2557C35.4612 64.4777 34.3819 64.8379 33.5234 65.4531C33.2119 65.6762 32.8904 65.983 32.7398 66.321C32.5905 66.656 32.5475 67.0479 32.533 67.4094C32.5259 67.5856 32.5788 67.8183 32.5346 67.9869C32.5397 67.9676 32.542 67.9778 32.5426 67.998C32.6798 68.1062 32.7733 68.2862 32.7835 68.4655C33.6393 68.0193 34.5252 67.6282 35.4283 67.2757C36.4339 66.8833 37.4707 66.5688 38.5077 66.2709C39.5226 65.9796 40.5849 65.8591 41.6195 65.6514C41.7513 65.6249 41.797 65.8029 41.6743 65.8501C40.5869 66.2679 39.5347 66.7632 38.4382 67.1563C37.3423 67.5493 36.2545 67.9746 35.1903 68.4474C33.1334 69.3615 31.1465 70.5246 29.526 72.1027C27.9433 73.6441 26.7224 75.5166 25.587 77.3992C24.4436 79.2951 23.4231 81.26 22.5136 83.2785C20.7142 87.2715 19.365 91.4699 18.4767 95.7582C17.6122 99.9314 17.1292 104.254 17.29 108.519C17.3664 110.545 17.6137 112.572 18.189 114.521C18.4639 115.452 18.8079 116.361 19.2426 117.229C19.701 118.145 20.3186 118.96 20.7371 119.891C20.7716 119.968 20.7847 120.041 20.7828 120.11C22.568 121.657 25.3623 120.614 27.2944 119.691C31.74 117.564 36.1032 115.237 40.2504 112.566C44.3436 109.93 48.2225 106.989 52.0099 103.935C51.717 103.633 51.4587 103.294 51.2317 102.987C50.763 102.354 50.4105 101.636 50.1679 100.886C49.8841 100.009 49.7962 99.0701 49.8768 98.1535L49.8997 97.8942C49.9769 97.0285 50.066 96.1501 50.2558 95.3042C50.2576 95.2933 50.2659 95.2886 50.2751 95.2886C50.2841 95.2886 50.2934 95.2942 50.297 95.3042C50.8088 96.9427 50.85 98.7038 51.4248 100.321C51.6564 100.972 52.0153 101.6 52.4457 102.139C52.6315 102.373 52.8494 102.575 53.0718 102.773C53.0865 102.672 53.1066 102.572 53.1368 102.474L53.1608 102.397C53.1906 102.303 53.2274 102.198 53.2787 102.105C53.2064 102.084 53.136 102.061 53.0664 102.036C53.0114 102.016 52.9995 101.927 53.0664 101.912C53.2486 101.87 53.4363 101.849 53.6276 101.84C53.6578 101.835 53.687 101.834 53.7163 101.836C54.0744 101.825 54.4387 101.851 54.7839 101.856C55.3817 101.865 55.9777 101.876 56.5745 101.903C57.7171 101.952 59.0069 102.171 60.1313 101.906C61.1529 101.664 62.16 100.982 62.9793 100.341C63.6952 99.7809 64.2473 99.1151 64.8414 98.4511C64.7987 98.4578 64.7564 98.4641 64.7142 98.47L64.3311 98.5225C63.8475 98.5871 63.2735 98.6378 62.8896 98.4053C62.7431 98.3165 62.7853 98.115 62.9345 98.06C63.3262 97.9163 63.8125 98.0353 64.2298 98.0152C64.5576 97.9995 64.8891 97.9648 65.2122 97.897C65.3184 97.8751 65.4236 97.8494 65.528 97.8192C66.2933 97.5985 67.1925 96.8218 66.5846 95.9737C66.5617 95.9417 66.5872 95.9124 66.6183 95.9068C66.6322 95.9041 66.6468 95.9068 66.6587 95.917C67.3507 96.4902 66.991 97.5178 66.3364 97.9584C66.1113 98.1104 65.8567 98.2167 65.5931 98.2945C65.6434 98.3869 65.6525 98.5006 65.5921 98.6086C65.0795 99.5227 64.2116 100.326 63.3986 100.972C62.5637 101.635 61.6006 102.26 60.5652 102.553C59.3695 102.89 58.0558 102.637 56.8428 102.529C56.1854 102.472 55.53 102.403 54.8736 102.327C54.6977 102.307 54.5156 102.291 54.3306 102.274C54.5046 102.503 54.6429 102.767 54.7335 102.925C55.0283 103.44 54.7564 104.117 54.1851 104.275C54.1255 104.292 54.0642 104.301 54.0039 104.302C53.85 104.611 53.4838 104.838 53.145 104.722C52.9977 104.672 52.8557 104.603 52.7194 104.52C50.589 106.392 48.346 108.149 46.0391 109.796C41.761 112.849 37.2768 115.638 32.6271 118.09C31.5798 118.642 30.5245 119.179 29.4602 119.696L28.5442 120.138C27.5302 120.626 26.4926 121.111 25.4158 121.414C25.2058 121.473 24.986 121.521 24.7608 121.558C24.7579 121.578 24.7572 121.597 24.7585 121.615C24.556 121.642 24.3793 121.647 24.2285 121.628L24.1941 121.623C22.8743 121.715 21.4625 121.393 20.6134 120.429C20.4718 120.528 20.2655 120.539 20.0834 120.396C19.1676 119.677 18.6217 118.583 18.1426 117.538C17.6569 116.478 17.2761 115.373 16.9963 114.242C16.4375 111.982 16.2159 109.65 16.2042 107.325C16.162 98.3665 18.4047 89.3291 22.3003 81.2861C23.2883 79.2463 24.3774 77.2445 25.5864 75.327C26.7921 73.4147 28.1922 71.6375 29.9852 70.2428C30.5008 69.8419 31.0372 69.4752 31.5904 69.1375C31.2191 68.9534 31.0716 68.4851 31.0456 68.0691C30.9879 67.1453 31.098 66.081 31.6386 65.3015C32.3971 64.208 33.7549 63.5337 35.0139 63.2059C35.6711 63.0348 36.351 62.9351 37.0289 62.9013C37.3784 62.8839 37.7416 62.9414 38.0869 62.9036C38.3916 62.8705 38.58 62.6886 38.7552 62.4495C39.2041 61.8365 39.4963 61.1936 40.1402 60.7442C40.8008 60.2833 41.6569 60.1069 42.4527 60.1547C43.3798 60.2105 44.2257 60.5759 45.0422 60.9958C45.7792 61.3748 46.4945 61.7946 47.1917 62.2425C47.3195 61.9429 47.4399 61.641 47.5518 61.3382C47.769 60.7509 47.9579 60.145 48.1111 59.538C48.2665 58.9224 48.2438 58.1095 48.713 57.6467C49.1211 57.2443 49.9068 57.4023 50.0391 57.997ZM81.6675 99.0696L81.6642 99.0703C80.715 99.633 80.2611 101.039 79.8144 101.654C79.8509 101.86 79.8765 102.07 79.9269 102.265C80.0423 102.713 80.1933 103.157 80.3682 103.584C80.6758 104.337 81.0613 105.055 81.4174 105.786C81.7039 106.374 81.9847 106.972 82.2031 107.591C82.1794 107.615 82.1576 107.643 82.139 107.678C81.902 108.122 81.7166 108.034 81.2794 107.937L81.2791 107.937C81.0291 107.171 80.6685 106.452 80.3444 105.717L80.2656 105.538L80.1877 105.359C79.9169 104.73 79.6698 104.095 79.5259 103.421C79.4343 102.992 79.3968 102.55 79.3914 102.112C79.1543 102.307 78.8695 102.447 78.5107 102.501C77.7428 102.617 77.0474 102.136 76.4217 101.75L76.2807 101.664C75.889 101.425 75.5007 101.205 75.0491 101.092C74.5364 100.964 74.0064 100.964 73.4855 100.899C73.4232 100.891 73.3601 100.883 73.2969 100.873C73.5001 101.546 73.5944 102.277 73.7153 102.951C73.8838 103.896 74.0211 104.849 74.1529 105.8C74.4093 107.643 74.5878 109.5 74.6783 111.358C74.7661 113.157 74.7219 114.95 74.6568 116.749L74.6244 117.626C74.5984 118.34 74.5769 119.055 74.5895 119.769C74.6243 119.772 74.6591 119.778 74.694 119.786C75.0547 119.87 75.3009 120.238 75.6306 120.402C76.3262 120.748 77.1667 120.744 77.9074 120.569C79.5919 120.17 80.9926 118.994 81.9153 117.557C83.0232 115.833 83.4296 113.804 83.4167 111.775C83.4015 109.491 83.0317 107.307 82.517 105.102L82.4839 104.961C82.0507 103.124 81.7793 99.0871 81.6675 99.0696ZM34.4976 94.461C34.5072 95.0753 34.2574 95.7325 34.1202 96.3294C33.9725 96.9726 33.8251 97.6158 33.6756 98.2588L33.5413 98.8348C33.4294 99.3148 33.3191 99.7951 33.2202 100.278C33.1389 100.675 33.1048 101.198 32.9716 101.636C34.5561 100.995 36.143 100.36 37.7273 99.7214C39.6791 98.9338 41.6401 98.1681 43.5965 97.3933C45.5456 96.6221 47.4837 95.7447 49.4722 95.0853C49.9455 94.9278 50.2659 95.6834 49.8127 95.893C47.7931 96.83 45.6563 97.5636 43.5873 98.3843L40.5944 99.5729C37.8508 100.662 35.1053 101.746 32.346 102.792C30.4665 103.505 28.5943 104.238 26.7029 104.915C25.8011 105.238 24.8912 105.543 23.9939 105.877C23.2423 106.157 22.4294 106.573 22.1511 107.381C22.1364 107.423 22.0787 107.405 22.0851 107.362C22.1977 106.58 22.7783 106.091 23.4327 105.721C24.3014 105.229 25.2556 104.871 26.1725 104.476L26.2973 104.422C28.1698 103.605 30.0573 102.821 31.9505 102.05C31.9317 102.004 31.9206 101.955 31.9198 101.904L31.9144 101.905C31.88 101.555 32.0405 101.243 32.1559 100.917L32.4871 99.9827C32.7077 99.3604 32.9056 98.7304 33.1095 98.1025C33.3227 97.4462 33.538 96.7906 33.7528 96.1348C33.9348 95.5793 34.0571 94.9173 34.3685 94.4208C34.406 94.361 34.5095 94.3946 34.4976 94.461ZM70.9606 93.0797L70.937 93.1989C70.9095 93.3384 70.8837 93.479 70.8773 93.62C70.8589 93.9891 70.901 94.3581 70.9991 94.7144C71.0952 95.067 71.2297 95.4077 71.4211 95.7201C71.6024 96.014 71.8651 96.2448 72.0327 96.5462C72.05 96.5781 72.061 96.6102 72.0655 96.6414C72.1296 96.6148 72.1929 96.591 72.2542 96.5717C72.7651 96.4097 73.2868 96.2741 73.816 96.1725L73.732 96.1668L73.6778 96.1625C72.7937 96.0876 71.9595 95.7983 72.1398 94.7656C72.2417 94.1819 72.6997 93.7905 73.1906 93.5131L73.2521 93.479C73.2786 93.4642 73.3061 93.4496 73.3326 93.4368C72.8886 93.3617 72.5664 93.2692 72.0217 93.1776C71.6682 93.1181 71.3139 93.0851 70.9606 93.0797ZM30.5699 80.3601C31.4393 82.1172 32.0933 83.9856 32.5868 85.8811C32.825 86.7965 33.0272 87.7209 33.1897 88.6527L33.2431 88.9639L33.2735 89.1327C33.4253 89.9633 33.6182 90.863 33.3951 91.6734C33.3224 91.9382 32.8829 92.043 32.7599 91.7566C32.3887 90.892 32.4409 89.8982 32.3334 88.973C32.2203 88.0022 32.066 87.036 31.8738 86.0777C31.5045 84.2365 30.9862 82.4383 30.4084 80.6537L30.344 80.4554C30.2949 80.3233 30.5086 80.2362 30.5699 80.3601ZM63.9854 88.221C63.7263 88.3429 63.4672 88.4546 63.2383 88.5662C63.221 88.5755 63.2027 88.5836 63.1843 88.5929C63.4434 88.5489 63.7034 88.5077 63.9634 88.4692C63.9608 88.3849 63.969 88.3017 63.9854 88.221ZM74.123 87.3409C74.0841 87.3536 74.0497 87.374 74.0198 87.402L74.0052 87.4167C73.9695 87.4499 73.9442 87.4892 73.9295 87.5345C73.9066 87.5783 73.896 87.6254 73.8979 87.6758L73.911 87.7731C73.9284 87.8352 73.9598 87.889 74.0052 87.9348L74.0793 87.992C74.1292 88.021 74.1827 88.0374 74.2395 88.0412L74.2641 88.0421L74.3382 88.0421C74.3806 88.0407 74.4205 88.0302 74.4579 88.0105C74.4968 87.9979 74.5312 87.9775 74.5611 87.9494L74.5757 87.9348C74.6115 87.9015 74.6367 87.8622 74.6514 87.8169C74.6711 87.7795 74.6816 87.7395 74.6831 87.6972L74.683 87.6758L74.6699 87.5783C74.6547 87.524 74.6288 87.476 74.5921 87.4342L74.5757 87.4167L74.5017 87.3593C74.4517 87.3304 74.3983 87.314 74.3414 87.3103L74.3168 87.3094H74.2641C74.2136 87.3075 74.1666 87.318 74.123 87.3409ZM71.741 87.217C71.5464 87.2527 71.4361 87.4887 71.4853 87.6675C71.5397 87.8656 71.7278 87.9537 71.9168 87.9266L71.9357 87.9235C72.1571 87.8827 72.374 87.8985 72.5848 87.9763C72.7703 88.0448 72.9861 87.8996 73.0352 87.7204C73.0914 87.5158 72.9657 87.3385 72.7794 87.2698C72.4453 87.1463 72.0869 87.1533 71.741 87.217ZM33.1703 74.2069C33.6132 74.8563 33.8898 75.7196 34.1626 76.4618L34.1899 76.5356C34.48 77.3155 34.7597 78.1016 35.0206 78.8919C35.5415 80.4694 36.2202 82.1202 36.3456 83.7867C36.3688 84.0943 35.8983 84.2175 35.7619 83.945C35.37 83.1613 35.1593 82.3443 34.9274 81.5041C34.7062 80.7029 34.4757 79.9043 34.2452 79.1057C34.0148 78.3075 33.7919 77.507 33.5649 76.7078C33.3442 75.9304 33.0369 75.0659 32.9863 74.2567C32.9797 74.1516 33.1194 74.1322 33.1703 74.2069ZM43.1683 68.9787C43.7596 69.3893 44.2439 69.9898 44.7443 70.5035C45.2519 71.0246 45.7528 71.5505 46.249 72.0827C47.0782 72.9719 47.8923 73.8758 48.7332 74.7543C50.4089 76.5049 52.3046 78.1159 54.6174 78.9387C55.177 79.1378 54.9318 80.0363 54.3709 79.833C52.0054 78.975 50.0457 77.3886 48.3172 75.594C47.4219 74.6646 46.6005 73.6715 45.7995 72.6606C45.4247 72.1876 45.0527 71.7131 44.6859 71.234L44.4665 70.946C44.0054 70.3373 43.4412 69.7307 43.1037 69.0434C43.0848 69.0048 43.1264 68.9497 43.1683 68.9787Z" fill="black"/>
<path fill-rule="evenodd" clip-rule="evenodd" d="M73.8604 50.0745C72.3137 43.0599 72.0123 35.3565 67.9298 29.2317C66.1458 26.7343 63.2794 23.4777 59.9308 24.5041C60.0688 23.0252 60.199 21.5458 60.3195 20.0654C60.3885 19.2186 60.7053 18.0904 59.9889 17.4393C58.8062 16.4839 56.8482 17.9458 55.9341 18.7627C53.9537 20.6598 53.1717 22.5024 50.563 23.7694C49.5173 23.0239 48.4982 22.2416 47.4369 21.5163C46.3554 20.7772 44.8084 19.5766 43.6861 20.941C42.7349 22.0976 43.3425 23.9206 43.7197 25.1931C43.9126 25.8439 44.1043 26.5542 44.3724 27.2235C44.395 27.7323 44.4343 28.2401 44.4921 28.7465C42.5597 29.0905 40.5709 29.3799 38.7246 30.0549C37.7177 30.6005 37.8065 31.8396 38.5208 32.5812C39.5897 33.6168 40.9424 34.4266 42.4191 34.9701C42.1509 35.8984 41.5081 36.6856 40.7 37.2003C40.4289 37.3722 40.2768 37.6244 40.2218 37.8933C39.8075 38.0993 39.364 38.2479 38.8954 38.3443C38.3176 38.4636 37.9837 39.146 38.1326 39.6882C38.5523 41.0061 40.0312 40.2529 40.9919 40.1598C41.0208 41.0801 41.0358 42.0391 41.4536 42.8917C39.2208 43.4778 37.2865 45.6152 37.8028 48.0233C38.2717 50.3254 40.7557 51.0289 42.722 51.552C42.871 51.6397 42.8705 51.7259 42.9178 51.9432C43.2423 53.4356 42.9691 55.0775 42.4576 56.4943C42.3182 56.8805 42.5231 57.3638 42.8328 57.5954C44.4341 58.6154 44.965 55.5093 46.7904 57.4863C46.6541 57.4659 46.3152 57.2964 46.3326 57.542C48.7008 61.6996 55.6932 61.9551 59.9774 62.0572C60.4915 62.3074 61.0835 62.1655 61.6716 62.0058C62.2327 61.9754 62.7932 61.9333 63.3523 61.8763C64.373 61.692 66.1683 61.9104 66.2324 60.4723C68.8686 59.432 71.1351 57.6348 72.6809 55.2536C73.8274 53.6735 74.2801 52.0009 73.8604 50.0745Z" fill="white"/>
<path fill-rule="evenodd" clip-rule="evenodd" d="M57.8732 16.9138L58.0271 16.8466C58.5577 16.6167 59.137 16.3963 59.7179 16.522C60.3869 16.6667 60.7737 17.2423 60.9394 17.8698C61.1311 18.5957 61.2168 19.3684 61.2693 20.1156C61.3236 20.8894 61.3026 21.6616 61.2444 22.4342C61.1958 23.0803 61.0953 23.8291 60.8549 24.4554C60.8651 24.4462 60.8774 24.4394 60.892 24.4379C61.8383 24.3409 62.7103 24.3974 63.614 24.7023C64.4558 24.9863 65.2718 25.3848 66.0044 25.8882C67.5868 26.9755 68.811 28.6176 69.664 30.3177C71.3967 33.7717 71.7623 37.6789 72.2479 41.4561L72.2626 41.5705C72.5239 43.5903 72.871 45.5796 73.4278 47.5388L73.5239 47.8728C74.0349 49.6652 74.3399 51.4089 73.9324 53.2646C73.1444 56.8529 70.3667 59.5614 67.1535 61.1249C65.513 61.9231 63.7378 62.5121 61.9449 62.8517C60.106 63.2001 58.1157 63.2584 56.439 62.3068C55.6077 61.8349 56.3396 60.6298 57.1797 61.0389C58.9135 61.8833 60.8784 61.6053 62.6781 61.1411C64.4681 60.6794 66.2238 60.033 67.8099 59.0729C70.5317 57.4255 72.8219 54.5813 72.897 51.2784C72.9392 49.4198 72.1453 47.6452 71.7625 45.8508C71.4251 44.2696 71.2158 42.6653 71.0182 41.0611L70.8717 39.8695C70.4467 36.4523 69.9144 32.9343 68.1602 29.9141C66.6117 27.2482 63.9445 25.1282 60.8748 24.5643C60.8564 24.561 60.8442 24.5522 60.8369 24.5409C60.743 25.0467 60.1857 25.5184 59.8291 25.8094C59.3239 26.2221 58.7117 26.5212 58.0458 26.5078C56.7617 26.482 55.6591 25.4859 54.7789 24.6516C54.6797 24.5577 54.7872 24.4265 54.9 24.4435C55.9215 24.5973 56.7973 25.4275 57.8444 25.4152C58.3832 25.4088 58.7961 25.1195 59.1479 24.735C59.2793 24.5912 59.3948 24.4176 59.5198 24.2581C59.5506 23.839 59.6693 23.428 59.7224 23.0109C59.7719 22.6216 59.8144 22.2265 59.8396 21.8343C59.8908 21.034 59.8746 20.2278 59.7861 19.4305C59.7481 19.0883 59.7 18.743 59.6253 18.406L59.5904 18.2541C59.5441 18.0453 59.5138 17.8551 59.2615 17.8765C58.7007 17.924 58.0738 18.2662 57.5833 18.5245C55.682 19.5262 54.2997 21.075 53.2794 22.8945C53.3435 22.9265 53.4047 22.9687 53.4619 23.0237C53.577 23.1342 53.636 23.329 53.5833 23.4831C53.3796 24.0788 52.6554 24.0962 52.146 24.3294C51.5908 24.5835 51.0693 24.9101 50.5755 25.2678C49.6035 25.9719 48.7104 26.7991 47.8612 27.6453C46.5237 28.9776 45.2818 30.3957 44.0824 31.8505L43.8271 32.4208C43.5724 32.991 43.3232 33.5632 43.117 34.1572C42.7814 35.123 42.5002 36.1104 42.2841 37.1099C42.0666 38.1158 41.9248 39.1449 41.871 40.1727C41.823 41.0899 41.9447 42.0064 41.9396 42.9182C42.0211 43.0707 42.0505 43.2426 42.0122 43.4178C42.2687 43.4904 42.5172 43.6011 42.7505 43.7539C42.8074 43.7913 42.7713 43.8803 42.7042 43.8638C42.4083 43.7909 42.1123 43.7747 41.8225 43.8029C41.6687 43.9927 41.4197 44.1135 41.1781 44.1082L41.075 44.1059C40.9995 44.1042 40.9246 44.0921 40.8523 44.0715C40.4445 44.2595 40.0693 44.5302 39.7517 44.8536C38.9881 45.6313 38.6194 46.6502 38.6736 47.7387C38.7272 48.8123 39.2988 49.7808 40.2456 50.2965C40.668 50.5264 41.1372 50.6475 41.6173 50.6564C42.0792 50.6647 42.6853 50.5243 43.0648 50.8254C43.1075 50.8593 43.1356 50.9043 43.1529 50.9541C43.1793 50.8423 43.2074 50.7308 43.2381 50.6197C43.2616 50.5348 43.4028 50.5249 43.4201 50.6197L43.4424 50.7433C43.7604 52.5365 43.8722 54.3827 45.1355 55.8179C45.7263 56.4892 46.4387 57.0947 47.1694 57.6086L47.2903 57.693C47.6025 57.9086 47.9398 58.118 48.3121 58.1961C48.7257 58.2828 49.0676 58.259 49.448 58.4864C49.6268 58.5933 49.7366 58.8295 49.6707 59.0342C49.2488 60.3487 47.5858 59.7582 46.7475 59.2386C46.2813 58.9496 45.8277 58.6005 45.4062 58.2159C45.0386 58.4399 44.6021 58.5844 44.227 58.6405C43.6485 58.7272 43.0343 58.6068 42.5732 58.2331C42.0853 57.8378 41.9184 57.2626 42.0013 56.652C42.0425 56.3482 42.1213 56.0518 42.2062 55.7576L42.2764 55.5172C42.3787 55.1672 42.4588 54.8058 42.6651 54.5002C42.7693 54.3461 43.0166 54.3607 43.0701 54.5533C43.1927 54.994 43.1397 55.4916 43.1079 55.9507L43.1011 56.056C43.0803 56.4014 42.9332 56.9311 43.2358 57.187C43.6004 57.4951 43.9994 57.3544 44.3875 57.1421C44.348 57.0938 44.3089 57.0453 44.2705 56.9967C43.0145 55.3996 42.7021 53.4115 43.0461 51.4681C42.722 51.8935 41.877 51.9856 41.4286 51.9525C40.7245 51.9007 40.0318 51.6866 39.4321 51.3101C38.1762 50.522 37.4698 49.1397 37.4398 47.6693C37.4105 46.2414 38.049 44.7974 39.2265 43.966C39.5376 43.7464 39.8837 43.5757 40.2449 43.4634C40.0693 42.7659 40.0507 41.9953 40.0888 41.2413C39.6676 41.2986 39.2116 41.2241 38.8308 41.0945L38.7716 41.0738C38.1847 40.8635 37.4392 40.4408 37.3293 39.781C37.194 38.9696 38.195 38.5032 38.7758 38.1791C39.0475 38.0276 39.3253 37.8858 39.6136 37.7688L39.7005 37.7345C39.9494 37.6387 40.2424 37.46 40.4951 37.6023C40.5132 37.6125 40.5175 37.6318 40.5149 37.6508C40.4649 38.0029 39.888 38.3026 39.6314 38.5247C39.4344 38.6951 39.244 38.8735 39.0613 39.0593C38.9428 39.1799 38.7647 39.4844 38.6127 39.5698C38.6833 39.6067 38.7679 39.6976 38.8268 39.7325C38.9929 39.8304 39.168 39.8995 39.3554 39.9441C39.634 40.0108 39.913 39.9822 40.192 39.9759C40.3052 38.8654 40.5109 37.7791 40.8419 36.7122C41.3972 34.9223 42.3072 33.0366 43.6056 31.6215C44.5576 29.8373 45.7872 28.2075 47.1916 26.7501C48.0923 25.8155 49.0438 24.9086 50.0991 24.1492C50.5669 23.8125 51.059 23.5092 51.5813 23.2649L51.7548 23.1852C52.0447 23.051 52.3973 22.8768 52.7336 22.827C52.9511 21.9635 53.3387 21.1377 53.8089 20.3892C54.4567 19.3578 55.3093 18.4879 56.3069 17.7929C56.7991 17.4498 57.3237 17.1548 57.8732 16.9138ZM40.5671 46.9878C41.4042 46.4254 42.4307 46.2053 43.431 46.2884C43.9272 46.3296 44.418 46.4459 44.883 46.6238L45.0747 46.6996C45.5188 46.8776 45.9955 47.0973 46.0114 47.6347C46.0177 47.8469 45.8607 48.0159 45.6712 48.0818C45.209 48.2425 44.8344 47.8576 44.4528 47.6528C44.0674 47.4459 43.6578 47.3094 43.2359 47.1988C43.1954 47.1882 43.1549 47.1786 43.1144 47.169C43.1364 47.213 43.1488 47.2618 43.1445 47.3142C43.1341 47.4399 43.0976 47.5333 43.062 47.6511C43.0513 47.6868 43.0252 47.9049 42.9985 47.9318C43.0072 48.006 43.0081 48.0761 43.0104 48.1509C43.0168 48.3715 42.9896 48.5579 42.877 48.7532C42.5965 49.2398 41.7946 49.2847 41.5261 48.7532C41.2576 48.2219 41.4674 47.7018 41.8755 47.3197C41.9867 47.2157 42.135 47.1097 42.2961 47.0366C41.7304 46.985 41.1583 47.0094 40.593 47.0838C40.5379 47.0911 40.5295 47.0132 40.5671 46.9878ZM40.6172 29.1611C41.7652 28.9659 42.9641 28.9269 44.1228 29.0424C44.186 29.0488 44.2096 29.145 44.1388 29.1605C42.3769 29.5474 40.5505 29.6782 38.9786 30.6475L38.9062 30.6929C38.7553 30.7889 38.3964 30.9701 38.3217 31.1408C38.2335 31.3423 38.4723 31.6013 38.5833 31.7468C38.833 32.0733 39.1431 32.3584 39.4855 32.5853C39.8473 32.8249 40.2362 33.0098 40.6544 33.1266C40.8531 33.1821 41.0592 33.2103 41.2556 33.2735C41.4791 33.3453 41.5513 33.4599 41.7206 33.6096C41.9158 33.782 41.8503 34.1128 41.6398 34.2365L41.5807 34.2708C41.3041 34.4292 41.1504 34.4758 40.7991 34.4139C40.5243 34.3654 40.2618 34.2693 40.0045 34.1625C39.5319 33.9662 39.1005 33.7091 38.7025 33.389L38.643 33.3405C37.9322 32.7527 36.7279 31.4671 37.5212 30.5311C38.2213 29.7051 39.5972 29.3346 40.6172 29.1611ZM43.4446 20.2558C44.5456 18.9583 46.1007 19.8442 47.2041 20.6201C48.3932 21.4561 49.4249 22.4422 50.2591 23.6336C50.3122 23.7093 50.2096 23.8015 50.1358 23.7569C49.2109 23.1991 48.2763 22.6651 47.3276 22.1481C46.938 21.9358 46.548 21.7286 46.1494 21.5346L45.9363 21.4321C45.6034 21.2677 45.1254 20.9677 44.7704 21.1633C44.0048 21.5854 44.4773 22.968 44.6351 23.6375L44.6495 23.7007L45.1305 25.9042L45.3497 26.8962C45.4276 26.9594 45.4924 27.0439 45.5383 27.1529C45.6625 27.4476 45.5611 27.8456 45.2608 28.0002C44.3745 28.4565 44.0744 27.5653 43.9075 26.8957C43.7719 26.3516 43.6349 25.808 43.4976 25.2644L43.2704 24.366C42.9225 23.0062 42.4285 21.4531 43.4446 20.2558Z" fill="black"/>
<path fill-rule="evenodd" clip-rule="evenodd" d="M62.0326 55.5854C61.4172 55.3343 60.8681 54.9153 60.4666 54.3801C60.3271 54.1941 60.2909 53.9976 60.3202 53.8179C60.3531 53.6159 60.4726 53.4328 60.6355 53.3099C60.799 53.1867 61.0035 53.1259 61.2012 53.1569C61.3729 53.1838 61.5439 53.2779 61.6792 53.4731L61.7075 53.5121C61.9462 53.8351 62.2572 54.1001 62.6116 54.271C62.9531 54.4356 63.3351 54.5124 63.7304 54.4678C64.4833 54.3827 65.0022 53.9754 65.5538 53.4222C65.6222 53.3524 65.6906 53.2803 65.7593 53.2072C65.8027 53.1408 65.863 53.0982 65.9299 53.0758C66.0042 53.051 66.0882 53.0524 66.1651 53.0792C66.2393 53.1052 66.3057 53.1543 66.3502 53.2196C66.3925 53.2817 66.4164 53.3584 66.4087 53.4467C66.3582 54.0199 66.0586 54.5315 65.633 54.9333C65.1604 55.3794 64.5339 55.6881 63.9441 55.7963C63.2943 55.9156 62.6322 55.8301 62.0326 55.5854ZM64.2507 46.742C64.942 47.1624 65.9953 48.1426 65.2516 49.1848C64.3762 50.1037 63.1158 49.0501 62.4947 48.5736C61.9188 48.2043 61.2717 49.1541 61.8061 49.5853C66.2942 52.9095 68.1155 46.8519 64.6003 46.2478C64.2133 46.1812 64.0695 46.612 64.2507 46.742ZM56.208 42.8752C56.2843 41.9268 57.7283 41.7114 57.872 42.6499C58.0006 43.4907 57.8492 44.263 57.4706 45.02C57.1089 45.7431 56.1998 45.4057 56.131 44.7472C56.0388 43.8646 56.1604 43.4652 56.208 42.8752ZM67.1997 42.4553C67.401 42.1916 67.6917 42.0115 68.0399 42.1133C69.128 42.4313 68.8073 43.9766 68.4252 44.7288C68.2176 45.1373 67.5464 45.2409 67.2431 44.8812C66.7487 44.2947 66.512 43.1234 67.1405 42.5457C67.1575 42.5159 67.1765 42.4857 67.1997 42.4553ZM57.4553 38.725L57.6272 38.6949C58.1589 38.6029 58.82 38.5145 59.1961 38.9421C59.3956 39.1689 59.4642 39.5904 59.1961 39.8074C58.7244 40.1893 58.203 40.0413 57.6377 40.0737C57.1719 40.1004 56.7243 40.1775 56.2756 40.3058C55.2912 40.5873 54.4892 41.1011 53.6485 41.6652C53.5382 41.7392 53.4256 41.5981 53.4782 41.4949C53.9635 40.5439 54.904 39.7628 55.846 39.2867C56.3488 39.0325 56.899 38.8217 57.4553 38.725ZM66.2078 38.299L66.3394 38.3259C67.771 38.6253 69.6309 39.2233 70.3089 40.63C70.3347 40.8289 70.3074 40.8715 70.2852 40.8994L70.2778 40.9086C70.2595 40.9324 70.2449 40.9652 70.1587 40.9923C70.1348 40.9866 70.1107 40.9805 70.0863 40.9741C69.7755 40.8927 69.5297 40.7804 69.2916 40.664L69.0336 40.5368C68.7341 40.3899 68.4321 40.2484 68.112 40.1439C67.4288 39.921 66.7261 39.764 66.0126 39.6801C65.8579 39.662 65.709 39.6098 65.5915 39.5203C65.48 39.4353 65.3948 39.3177 65.3559 39.1614C65.3056 38.9591 65.32 38.8059 65.4285 38.6234C65.5101 38.4863 65.6269 38.3913 65.7609 38.3367C65.8976 38.2811 66.0532 38.268 66.2078 38.299Z" fill="black"/>
<path fill-rule="evenodd" clip-rule="evenodd" d="M69.2853 39.9311C71.4341 39.9311 72.6604 40.3934 73.1098 40.4294L73.1233 40.4304C73.3102 40.4423 73.4779 40.4579 73.6538 40.526C74.3006 40.7752 74.406 41.4539 74.0285 41.8816C74.002 42.7667 74.1184 43.8008 73.9187 44.6887C73.6725 48.4319 71.9128 49.0636 70.9126 49.2941C70.4104 49.4099 69.8152 49.456 69.2818 49.3338C68.3718 49.2998 67.4722 49.0148 66.7025 48.5186C65.6305 47.8269 64.8343 46.7639 64.576 45.5022C64.4535 44.9008 64.3963 44.2749 64.4629 43.6636L64.4728 43.5794C64.1244 43.4126 63.7206 43.3811 63.3044 43.3664C63.1055 43.3593 62.9096 43.3529 62.7192 43.3614C62.5331 43.3822 62.3492 43.4099 62.1648 43.4476C61.9634 43.5084 61.7732 43.6087 61.5975 43.7676L61.5855 43.9995C61.5525 44.5789 61.4764 45.16 61.3591 45.7284C61.186 46.5671 60.9075 47.3681 60.3147 47.963C60.114 48.2628 59.8657 48.5305 59.5643 48.7622C58.4693 49.6056 56.9817 49.9152 55.6163 49.7986C52.8445 49.562 51.2423 47.3608 50.8731 46.4199L50.8511 46.3629C50.5843 45.6634 50.3718 44.7559 49.5289 44.6056L49.3497 44.5734C48.9651 44.5011 48.6102 44.4006 48.3847 44.0252C48.2858 43.8613 48.235 43.678 48.2225 43.4912C48.091 43.5013 47.9596 43.5109 47.8286 43.5203C46.7842 43.7413 40.5197 43.9286 40.0197 43.9286C40.0197 43.9286 39.0585 44.3333 38.6527 44.0198C38.3714 43.8017 38.2789 43.5111 38.4337 43.1819C38.6674 42.6865 39.7452 42.3886 40.2238 42.2942C40.2238 42.2942 47.9473 42.3584 48.5032 42.253C48.8472 41.8982 49.4624 41.9467 49.9765 41.8906C50.4021 41.5871 50.9974 41.3837 51.4677 41.2476C51.5636 41.2113 51.6585 41.1762 51.7508 41.1431C52.6129 40.8359 53.5091 40.6732 54.4189 40.5859C55.3571 40.4967 56.298 40.537 57.2307 40.6649C57.6238 40.7182 58.0131 40.7872 58.3998 40.8774C59.0921 40.9687 59.7804 41.1191 60.4729 41.2975L60.6115 41.3335C61.3408 41.5248 62.0903 41.6903 62.8452 41.5606C63.4599 41.4557 64.0509 41.2191 64.6176 40.9632L64.6914 40.9297C65.9375 40.3606 67.8834 39.9311 69.2853 39.9311ZM58.3248 42.0121C57.8651 41.911 57.6687 42.6201 58.13 42.7215C58.4566 42.7934 58.7334 42.9581 58.9204 43.2373L58.9401 43.2676C59.191 43.6671 59.8256 43.2983 59.5729 42.8963C59.2886 42.4438 58.8468 42.1269 58.3248 42.0121ZM71.7905 41.5724C71.6284 41.4582 71.3831 41.543 71.289 41.7044C71.1855 41.8821 71.2534 42.08 71.4052 42.1963L71.4206 42.2076C71.5598 42.3058 71.6954 42.4818 71.7125 42.6621L71.714 42.6846C71.7322 43.1565 72.4653 43.1589 72.4469 42.6846C72.4291 42.2207 72.1605 41.8331 71.7905 41.5724Z" fill="black"/>
</svg>
