<?xml version="1.0" encoding="UTF-8" standalone="no"?>
<svg
   width="124"
   height="124"
   viewBox="0 0 124 124"
   fill="none"
   version="1.1"
   id="svg18"
   sodipodi:docname="standard.svg"
   inkscape:version="1.1.1 (3bf5ae0d25, 2021-09-20)"
   xmlns:inkscape="http://www.inkscape.org/namespaces/inkscape"
   xmlns:sodipodi="http://sodipodi.sourceforge.net/DTD/sodipodi-0.dtd"
   xmlns="http://www.w3.org/2000/svg"
   xmlns:svg="http://www.w3.org/2000/svg">
  <defs
     id="defs22" />
  <sodipodi:namedview
     id="namedview20"
     pagecolor="#ffffff"
     bordercolor="#666666"
     borderopacity="1.0"
     inkscape:pageshadow="2"
     inkscape:pageopacity="0.0"
     inkscape:pagecheckerboard="0"
     showgrid="false"
     inkscape:zoom="1"
     inkscape:cx="19.5"
     inkscape:cy="26.5"
     inkscape:window-width="3440"
     inkscape:window-height="1377"
     inkscape:window-x="-8"
     inkscape:window-y="-8"
     inkscape:window-maximized="1"
     inkscape:current-layer="svg18" />
  <path
     fill-rule="evenodd"
     clip-rule="evenodd"
     d="m 34.537103,125.86407 c 0.431718,0.65608 1.280905,0.55523 1.645491,0.0471 4.151465,0.96763 8.407409,0.58623 12.616579,0.34894 11.86122,-0.4828 23.78937,1.03071 35.602548,-0.55247 1.253308,-0.25085 2.711801,-0.13093 3.737185,-1.00045 1.640027,-1.92261 1.286864,-4.84161 1.025567,-7.18337 -2.094042,-13.20015 -5.071174,-26.521332 -6.556257,-39.806395 -0.08306,-1.265409 0.438246,-2.837775 0.905646,-4.027271 0.115338,-0.221323 0.844951,-0.438246 1.223602,-0.693489 1.161808,-0.834318 0.973492,-2.329483 -0.03373,-3.206707 -3.261166,-2.299596 -7.80076,-1.496086 -11.260146,-0.64765 -0.663052,-2.491027 -1.408252,-4.129221 -2.670544,-4.2915 -2.402464,-0.308789 -8.230572,-1.252391 -10.025725,0 -0.858704,0.59924 -1.410086,2.710517 -2.028214,3.739018 -4.508605,-0.08013 -13.658942,-6.114342 -15.540112,0.680656 -1.528412,0.105621 -3.042244,1.440523 -2.749869,3.042411 -1.982243,1.752246 -0.418789,4.379699 -0.446221,6.56084 -0.2606,4.627423 -2.763621,8.765994 -3.804975,13.236282 -2.380294,8.670095 -5.074419,24.440865 -2.122152,32.903575 -0.06353,-0.0332 -0.202308,0.0168 -0.112403,0.0873 0.334294,0.0943 0.377752,0.51546 0.59374,0.76317 z"
     fill="#ffffff"
     id="path2"
     style="stroke-width:1.83367" />
  <path
     fill-rule="evenodd"
     clip-rule="evenodd"
     d="m 86.371256,123.65926 c -0.553765,-4.44699 -0.938834,-9.81522 -0.943236,-14.29924 -3.65e-4,-0.4223 0.654617,-0.42156 0.654985,0 0.0045,4.48402 0.389469,9.85225 0.943235,14.29924 0.05207,0.41808 -0.603642,0.41295 -0.654984,0 z M 82.269355,96.086324 c -0.855584,0.523329 -1.97907,0.16027 -2.825854,-0.186299 -0.385434,-0.15787 -0.215638,-0.791407 0.174198,-0.631882 0.644349,0.26387 1.586118,0.652243 2.266405,0.284405 0.678821,-0.367276 0.709444,-1.377453 0.714395,-2.044164 0.0032,-0.422109 0.658101,-0.421741 0.654983,0 -0.0067,0.906923 -0.128173,2.054058 -0.984127,2.57794 z M 80.685807,116.4363 c -0.863288,-0.44265 -1.599687,-1.04776 -2.19251,-1.81588 -0.257629,-0.33392 0.31154,-0.65976 0.565503,-0.33079 0.521676,0.67607 1.201414,1.19316 1.957616,1.58099 0.375533,0.19252 0.04383,0.75766 -0.330609,0.56568 z M 76.536781,93.568158 c -1.481231,5.937403 -2.475076,11.981142 -2.96228,18.081352 -0.09901,1.23847 -0.168696,2.47527 -0.207936,3.7128 -0.03924,0.32273 -0.07701,0.64619 -0.112221,0.96982 -0.133306,1.22361 -0.235807,2.46702 -0.22664,3.69887 0.0041,0.55285 0.02127,1.10314 0.05885,1.65434 -0.06546,-0.18428 -0.126156,-0.3693 -0.185016,-0.55359 -0.120288,-0.37755 -0.199686,-0.76905 -0.32254,-1.14421 -0.101588,-0.31042 -0.232508,-0.60767 -0.354631,-0.90839 v -6.8e-4 c 0.03685,-1.23112 -0.04659,-2.47359 -0.08911,-3.69885 -0.05483,-1.5874 -0.122855,-3.17297 -0.158062,-4.7611 -0.07041,-3.17628 -0.0352,-6.35509 0.0794,-9.52972 0.230125,-6.396917 0.811395,-12.763198 1.397616,-19.133889 0.16283,-1.771684 0.338128,-3.542451 0.459333,-5.317435 0.121938,-1.793504 0.17108,-3.590676 0.185016,-5.389131 7.45e-4,-0.129455 -0.195652,-0.163746 -0.231774,-0.0387 -0.03191,-0.426691 -0.08839,-0.852468 -0.18245,-1.264492 1.412286,0.900878 2.901586,1.679817 4.361363,2.498913 0.768671,0.431643 1.534223,0.870623 2.326733,1.257158 0.435678,0.212888 0.875206,0.408724 1.323903,0.593923 0.465017,0.191618 0.909679,0.455299 1.42127,0.321808 0.04419,-0.01137 0.08599,-0.02786 0.126157,-0.04914 -0.05812,0.110571 -0.116255,0.220408 -0.171998,0.331893 -0.193085,0.38397 -0.377367,0.769772 -0.555783,1.158874 -0.04749,0.0352 -0.0893,0.08362 -0.122122,0.14651 -0.08673,0.169613 -0.17108,0.340694 -0.252861,0.514342 -0.0165,-0.01541 -0.03283,-0.03099 -0.04914,-0.04658 -0.06876,-0.06473 -0.163746,0.03264 -0.103232,0.103232 0.02786,0.03173 0.05482,0.06307 0.08198,0.09498 -0.533963,1.149156 -0.967807,2.35717 -1.414853,3.536765 -0.549366,1.44951 -1.070126,2.910021 -1.560447,4.380066 -0.966889,2.892237 -1.820092,5.821881 -2.558507,8.780311 z M 55.361845,115.11532 c -2.72977,1.46253 -5.280575,3.2102 -7.734015,5.0952 -0.33446,0.25708 -0.660302,-0.31245 -0.330609,-0.56569 2.45344,-1.88499 5.004429,-3.63284 7.7342,-5.09539 0.371866,-0.19912 0.702292,0.36675 0.330424,0.56588 z M 46.142198,97.987657 c -0.141925,-0.01081 -0.279817,-0.09299 -0.315939,-0.240589 -0.221141,-0.905637 -0.394238,-1.892339 -0.188501,-2.816141 0.09168,-0.412021 0.723013,-0.236719 0.631514,0.174198 -0.16228,0.728335 -0.03337,1.515893 0.13514,2.242216 2.380641,0.104346 4.729561,-0.750339 7.007336,-1.324274 0.40964,-0.103265 0.582737,0.529007 0.174196,0.631872 -2.416214,0.608601 -4.915494,1.519925 -7.443746,1.332718 z M 93.538491,122.1465 c 0.0021,-0.005 0.0054,-0.0122 0.0065,-0.0181 0.139898,-0.42432 0.143208,-0.91739 0.158789,-1.36205 0.02693,-0.79123 -0.0021,-1.5841 -0.07278,-2.37276 -0.150723,-1.66038 -0.474921,-3.29343 -0.86219,-4.91274 -0.767207,-3.20744 -1.851086,-6.32797 -2.439868,-9.57887 -1.155206,-6.381125 -0.88089,-13.02541 -3.148029,-19.180454 -0.942318,-2.558875 -2.288409,-5.018365 -4.117302,-7.051344 0.133307,-0.406157 0.263497,-0.813229 0.390386,-1.221953 0.221873,-0.71091 0.448696,-1.44474 0.585488,-2.177106 0.0032,-0.01962 0.0074,-0.04016 0.01,-0.06051 0.778572,-0.335929 1.486732,-0.968906 1.607937,-1.810925 0.05245,-0.363798 -0.0083,-0.766653 -0.165396,-1.117983 0.320891,-0.296503 0.527177,-0.681572 0.478035,-1.197564 -0.09168,-0.97129 -1.225619,-1.221218 -2.014826,-1.411186 -0.897394,-0.215455 -1.82816,-0.275233 -2.746091,-0.173647 -0.463366,0.05079 -0.921781,0.135874 -1.369746,0.263682 -0.388736,0.110569 -0.812127,0.224439 -1.124033,0.49142 -0.03685,0.03116 -0.0067,0.09187 0.03759,0.09187 0.631331,-0.0024 1.260093,-0.234341 1.897839,-0.264781 0.668187,-0.03099 1.33454,0.02383 1.989523,0.161545 0.640314,0.134225 1.278979,0.330793 1.860982,0.634814 0.163747,0.08599 0.40359,0.144127 0.211239,0.317773 -0.140824,0.12689 -0.417524,0.137709 -0.598507,0.156413 -0.400289,0.0418 -0.745751,0.275965 -0.796543,0.703575 -0.04512,0.37755 0.180067,0.80516 0.581271,0.890243 0.02219,0.005 0.04253,0.0106 0.06051,0.01797 0.0106,0.02053 0.02713,0.03778 0.0255,0.01 0,0 7.44e-4,-7.45e-4 7.44e-4,0 0.01,0.05978 0.01319,0.08344 0.01319,0.08765 -0.0026,-0.005 -0.0067,-0.02549 -0.0099,-0.0418 0.0026,0.01487 0.0074,0.03851 0.01394,0.07371 -0.009,-0.03851 -0.0017,0.05574 -0.009,0.07041 -0.212887,0.393138 -0.842566,0.503891 -1.209299,0.673321 -0.07115,0.03264 -0.132574,0.07132 -0.185017,0.114604 -0.08673,-0.03026 -0.175297,-0.06051 -0.264414,-0.09406 -0.43971,-0.164663 -0.878506,-0.324375 -1.323902,-0.472718 -0.859622,-0.287517 -1.73006,-0.543865 -2.589681,-0.832115 -1.627557,-0.545514 -3.201204,-1.234238 -4.798507,-1.858415 -0.05079,-0.188317 -0.109837,-0.3726 -0.179332,-0.552116 -0.01394,-0.03759 -0.08104,-0.04988 -0.08839,0 -0.02457,0.158978 -0.04438,0.31869 -0.06069,0.479135 -0.0067,0.01487 -0.0083,0.03116 -0.005,0.04676 -0.09242,0.933701 -0.06785,1.889588 -0.115337,2.822556 -0.05905,1.162907 -0.223523,2.317748 -0.270282,3.481754 v 0.02127 c -0.171813,0.993477 -0.327491,1.990256 -0.468317,2.990335 -0.157878,-0.04914 -0.33886,-0.03924 -0.523877,0.05978 -1.308316,0.698624 -2.778914,1.087726 -4.25831,1.174459 -0.745017,0.04346 -1.482699,0.01906 -2.223681,-0.06712 -0.487022,-0.05574 -0.966891,-0.157143 -1.447493,-0.253962 0.253046,-1.060588 0.524794,-2.116412 0.831932,-3.161414 0.252861,-0.859255 0.534513,-1.71429 0.882541,-2.540722 0.351146,-0.834682 0.788474,-1.631591 1.195364,-2.440786 0.1874,-0.37425 -0.03355,-0.946903 -0.52076,-0.90748 -0.144125,0.01137 -0.288251,0.02036 -0.433111,0.02696 -1.409902,0.0673 -2.876281,-0.09003 -4.26803,-0.230125 -1.584282,-0.160445 -3.189836,-0.326942 -4.760184,-0.588056 -0.116254,-0.01889 -0.163746,0.139177 -0.04914,0.177682 0.745201,0.250662 1.481232,0.533963 2.244953,0.721546 0.786089,0.194185 1.576947,0.371133 2.374407,0.509575 0.763903,0.13184 1.531106,0.242408 2.300695,0.335743 0.501873,0.06143 1.009431,0.0926 1.514603,0.133491 -0.680288,1.087727 -1.149521,2.314631 -1.558061,3.522646 -0.524795,1.55146 -0.910414,3.147664 -1.287781,4.740747 -0.807361,3.414651 -1.47298,6.863756 -1.99374,10.333966 -0.373332,2.488278 -0.675336,4.986461 -0.902161,7.491055 -0.06712,-0.760784 -0.149076,-1.51919 -0.241493,-2.27686 -0.309521,-2.515408 -0.761519,-5.014326 -1.36571,-7.475463 0.0541,-0.09505 0.0794,-0.208865 0.06143,-0.319428 -0.108918,-0.676616 -0.39552,-1.265592 -0.646915,-1.89289 -0.249561,-0.876311 -0.518926,-1.747106 -0.808828,-2.611132 -0.329142,-1.177027 -0.698441,-2.335901 -1.170793,-3.46782 -0.361047,-0.862553 -0.772888,-1.702921 -1.231302,-2.5178 -0.547716,-1.139254 -1.149522,-2.253935 -1.810191,-3.31966 -0.03447,-0.09902 -0.09021,-0.191617 -0.169614,-0.269548 -0.120288,-0.189968 -0.242227,-0.37755 -0.366732,-0.563484 -0.08104,-0.121204 -0.313557,-0.04749 -0.252128,0.10653 0.0286,0.07225 0.05721,0.144127 0.08673,0.215456 -2.691081,-0.67332 -5.329903,0.35628 -7.893381,1.116332 -0.646804,0.192535 -1.300156,0.366183 -1.963319,0.491422 -0.521529,0.09828 -1.12904,0.217839 -1.648938,0.109653 -0.347955,-0.07188 -0.501872,-0.230125 -0.332406,-0.601808 0.175207,-0.384886 0.653352,-0.638114 1.068456,-0.808461 0.156375,-0.03355 0.310292,-0.09334 0.458489,-0.183549 0.345499,-0.209588 0.496977,-0.646917 0.334039,-1.019699 -0.148198,-0.336661 -0.580483,-0.626563 -0.96282,-0.472536 -0.05486,0.022 -0.108901,0.04346 -0.162939,0.06473 -0.0057,-0.0083 -0.01229,-0.01962 -0.018,-0.03613 -0.05486,-0.14981 -0.07861,0.02952 -0.05486,-0.185016 0.03933,-0.350596 0.41019,-0.669286 0.664005,-0.869889 0.631237,-0.500405 1.543301,-0.870622 2.357942,-0.681388 0.06141,0.01394 0.1228,0.03099 0.183402,0.05245 0.839195,0.290635 1.24777,-0.918298 0.5772,-1.368645 -0.04095,-0.02713 -0.09253,-0.06143 -0.149001,-0.101589 -0.279194,-0.194184 -0.687753,-0.520943 -0.576395,-0.815796 0.137543,-0.366182 0.948902,-0.576686 1.255875,-0.701192 1.110282,-0.450347 2.309679,-0.705959 3.506695,-0.758402 1.204347,-0.05245 2.424282,0.08032 3.58609,0.405422 0.569719,0.158978 1.155206,0.400471 1.693936,0.644716 0.483903,0.218572 1.536791,0.50774 1.603903,1.120367 0.01467,0.135141 0.20702,0.180982 0.248828,0.03355 0.330059,-1.176111 -0.95057,-1.93543 -1.795521,-2.421167 -0.554132,-0.319423 -1.183078,-0.518375 -1.791305,-0.714212 -0.582919,-0.188316 -1.178127,-0.326758 -1.785619,-0.410373 -1.304282,-0.178415 -2.624151,-0.155494 -3.917617,0.09517 -1.178125,0.228473 -2.489011,0.61831 -3.441194,1.376713 -0.584571,0.465199 -0.849022,1.205632 -0.614038,1.928094 0.0082,0.02384 0.01637,0.04841 0.02456,0.07206 -1.052063,0.188318 -2.047649,0.791225 -2.713287,1.631592 -0.546908,0.690374 -0.833453,1.651211 -0.343866,2.454721 -0.02047,0.01467 -0.04093,0.03025 -0.06059,0.04659 -0.466666,0.373516 -0.813813,0.915914 -0.916976,1.508735 -0.202216,1.169694 0.504348,1.987873 1.492545,2.300696 -0.244794,0.239293 -0.479777,0.493072 -0.709829,0.747034 -0.514983,0.569167 -1.007046,1.189128 -1.440982,1.821558 -0.879313,1.280996 -1.630914,2.675862 -2.288355,4.081366 -1.351719,2.886354 -2.204024,5.992954 -2.655966,9.14299 -0.227594,1.5874 -0.37988,3.182876 -0.438007,4.784938 -0.06715,1.826507 8.12e-4,3.653744 -0.0344,5.481174 -0.03438,1.75592 -0.22842,3.46946 -0.620603,5.18137 -0.375791,1.6371 -0.876856,3.24173 -1.330431,4.85773 -0.511701,1.81992 -1.075003,3.63158 -1.345174,5.50814 -0.136736,0.9548 -0.234983,1.91252 -0.158832,2.87812 0.07695,0.98358 0.433917,1.82485 0.763059,2.73967 0.08351,0.2336 0.338128,0.32767 0.541994,0.27762 0.04585,0.43824 0.211239,0.86585 0.457663,1.23606 0.523181,0.78464 1.328818,1.28504 2.251516,1.46695 1.039797,0.20389 2.111516,0.15548 3.164405,0.11789 1.142133,-0.041 2.285091,-0.0778 3.427204,-0.12523 1.195767,-0.0495 2.391442,-0.10035 3.587211,-0.15129 -0.03956,-1.22598 -0.08671,-2.4516 -0.140019,-3.67721 -0.288269,-6.62466 -0.742248,-13.25353 -0.754295,-19.88697 -0.02316,-0.0136 -0.04594,-0.0298 -0.0677,-0.051 -0.538326,-0.52039 -1.199197,-0.86236 -1.820129,-1.26962 -0.351403,-0.23068 -0.02292,-0.79783 0.330609,-0.56588 0.523492,0.34345 1.069006,0.64876 1.559602,1.03364 0.0029,-0.69056 0.0089,-1.38111 0.02259,-2.07168 0.0083,-0.42173 0.663346,-0.42173 0.654984,0 -0.04109,2.08121 -0.02734,4.16297 0.01973,6.24417 0.152376,6.74384 0.631329,13.4752 0.849443,20.21648 3.209457,-0.13715 6.419097,-0.2754 9.628921,-0.39259 2.610951,-0.0948 5.2219,-0.18997 7.83285,-0.28495 0.547715,-0.0193 0.855588,-0.41111 0.922699,-0.92306 0.122855,-0.94196 -0.108001,-1.91563 -0.630413,-2.70777 -0.05409,-0.082 -0.117904,-0.15476 -0.189234,-0.2171 0.01229,-0.56421 0.0352,-1.12954 0.0032,-1.69375 -0.04749,-0.86165 -0.118638,-1.72328 -0.180801,-2.584 -0.126155,-1.72419 -0.223522,-3.45151 -0.262029,-5.17972 -0.07866,-3.45646 -0.02127,-6.9162 0.174381,-10.36752 0.392221,-6.895661 1.305017,-13.747146 2.799267,-20.491888 0.10892,-0.491422 0.218573,-0.982844 0.332259,-1.473532 1.161808,0.603642 2.57501,0.820564 3.844823,0.828815 1.591617,0.01 3.148028,-0.356279 4.585802,-1.022081 -0.0099,0.07444 -0.01962,0.148159 -0.02878,0.222789 -0.401022,3.194235 -0.739149,6.395072 -1.034003,9.600125 -0.587871,6.389399 -0.948001,12.805002 -0.898126,19.223012 0.01394,1.77828 0.08198,3.5507 0.166131,5.3264 0.08599,1.80598 0.217838,3.71446 0.720628,5.45643 0.05556,0.19254 0.17915,0.30311 0.321623,0.34326 0.0076,0.25397 0.02384,0.50866 0.04181,0.75932 0.05812,0.81488 0.224439,2.5079 0.579621,3.2465 0.346378,0.72099 0.923614,1.29272 1.659645,1.6072 0.934985,0.39882 1.946064,0.28421 2.933491,0.22024 4.293518,-0.28001 8.583552,-0.65519 12.874503,-0.98451 0.597773,-0.0459 1.195369,-0.0909 1.792226,-0.13753 0.531396,-0.041 1.080764,-0.0772 1.552386,-0.35298 0.536327,-0.31374 0.954597,-1.85437 0.769576,-2.49158 -0.03352,-0.11642 -0.08435,-0.23104 -0.151459,-0.33427 z"
     fill="#000000"
     id="path4"
     style="stroke-width:1.83367" />
  <path
     fill-rule="evenodd"
     clip-rule="evenodd"
     d="m 81.180528,41.801283 c -0.02751,-0.979432 -1.451527,-1.386084 -1.862999,-0.416077 -0.02549,0.02597 -0.05318,0.05094 -0.07921,0.07331 0.128725,-0.110497 -0.14064,0.07232 -0.184282,0.09493 -0.03759,0.01934 -0.07591,0.03676 -0.114054,0.05478 -0.264597,-2.481231 -1.162908,-5.156103 -3.484323,-6.401544 -3.237512,-1.570621 -6.978548,-1.877193 -10.530532,-1.721167 -1.799188,0.106812 -3.877093,0.394623 -5.47568,-0.51601 -0.498021,-0.283704 -0.897393,-0.730347 -1.460144,-0.9057 -1.777001,-0.48086 -2.582894,1.344477 -2.340852,2.845548 -0.758036,0.0061 -1.509836,0.425739 -1.836961,1.116865 -0.191985,0.409035 -0.188684,0.850416 -0.354263,1.260936 -0.508291,1.041006 -1.235339,1.789304 -0.82423,3.05145 -0.723014,0.823076 -0.310807,2.069104 0.272663,2.857119 0.28807,0.409841 0.631147,0.803326 0.842202,1.262073 0.205003,0.439253 -0.104335,0.960179 -0.276333,1.376585 -1.272377,3.018113 -1.199764,6.341992 -0.515075,9.490019 -1.373779,0.596308 -1.786171,2.460593 -0.890243,3.634318 0.308238,0.414957 0.684322,0.568984 1.110833,0.824231 0.539646,0.297053 0.09883,1.487466 0.271565,2.062136 0.234891,1.403299 1.512036,2.267503 2.775062,1.356176 0.80131,-0.121206 1.447675,2.211394 2.029679,2.796882 0.358481,0.471618 0.75657,0.895376 1.189313,1.286313 1.289614,3.31911 7.897211,5.002227 11.164062,4.810059 3.421063,-0.358296 5.729092,-3.264833 7.650768,-5.844244 0.986876,-1.374511 1.628658,-2.912771 1.862084,-4.590571 0.234525,-1.686418 0.13184,-3.375586 -0.02659,-5.064021 -0.332993,-3.587008 -0.858338,-8.754999 -1.197565,-12.380825 1.225803,-0.100983 2.322333,-1.14503 2.28511,-2.413575 z"
     fill="#ffffff"
     id="path6"
     style="stroke-width:1.83367" />
  <path
     fill-rule="evenodd"
     clip-rule="evenodd"
     d="m 54.458218,39.644511 c -0.0011,0.0051 5.5e-4,0.009 0.0017,0.01434 3.68e-4,-0.0015 5.5e-4,-0.0024 9.8e-4,-0.0044 -9.8e-4,-0.0041 -0.0017,-0.0067 -0.0026,-0.01006 z"
     fill="#ffffff"
     id="path8"
     style="stroke-width:1.83367" />
  <path
     fill-rule="evenodd"
     clip-rule="evenodd"
     d="m 54.457852,39.696918 c -0.0045,-0.0046 -0.01082,-0.0083 -0.01724,-0.01301 -1.84e-4,1.64e-4 -1.84e-4,3.29e-4 -3.68e-4,4.93e-4 0.0061,0.004 0.01174,0.0085 0.0176,0.01252 z"
     fill="#ffffff"
     id="path10"
     style="stroke-width:1.83367" />
  <path
     fill-rule="evenodd"
     clip-rule="evenodd"
     d="m 80.985427,42.264814 c 0.402672,-0.334662 1.036935,-0.02653 0.900511,0.524444 -0.148343,0.60003 -0.791226,1.010055 -1.32207,1.25659 -0.546247,0.253669 -1.078376,0.302554 -1.674316,0.274867 l -0.0074,-0.0016 c 0.165581,0.663676 0.259281,1.353573 0.385987,2.021264 0.160629,0.847004 0.318506,1.694523 0.474185,2.542408 0.150543,0.819647 0.340877,1.640209 0.456581,2.463891 0.116805,0.831381 0.228658,1.663313 0.343261,2.495062 0.191434,1.388998 0.345829,2.784414 0.508657,4.177447 l 0.07758,0.659385 c 0.163012,1.395599 0.294301,2.792849 -0.01467,4.181847 -0.289718,1.301533 -0.941951,2.515783 -1.698702,3.602226 -0.740983,1.064074 -1.568881,2.087073 -2.477644,3.012524 -1.752796,1.784702 -3.914133,3.214224 -6.448619,3.479372 -1.091395,0.114236 -2.256869,-0.01284 -3.282804,-0.409641 l -0.06821,-0.02677 c -1.038403,-0.410191 -2.31023,-1.112482 -2.580512,-2.264939 -0.165947,-0.70706 0.562201,-1.258992 1.200867,-0.923616 0.295768,0.155496 0.51819,0.333176 0.761152,0.555967 l 0.04309,0.03978 c 0.198401,0.184283 0.274681,0.240942 0.503707,0.385252 0.469783,0.295587 0.821846,0.435495 1.355258,0.569719 0.983576,0.247544 2.045266,0.208487 3.043695,-0.08435 2.120079,-0.621428 3.764689,-2.243118 5.173674,-3.869208 0.765004,-0.883091 1.491134,-1.809273 2.051134,-2.838508 0.587689,-1.079659 0.858887,-2.213411 0.842566,-3.441965 -0.01834,-1.386248 -0.209769,-2.777813 -0.33556,-4.157644 -0.127988,-1.406417 -0.246443,-2.812652 -0.350778,-4.221087 -0.09773,-1.320969 -0.107081,-2.647807 -0.141191,-3.97281 l -0.0067,-0.248277 c -0.02,-0.703394 -0.03392,-1.407116 -0.04988,-2.110691 -0.01578,-0.701523 -0.07133,-1.411956 8.54e-4,-2.110526 0.0051,-0.05086 0.07353,-0.06374 0.0904,-0.01229 0.04253,0.130869 0.07976,0.263809 0.114969,0.397483 0.0054,-0.0041 0.01137,-0.0077 0.01889,-0.01027 0.466852,-0.160536 0.897027,-0.481024 1.247439,-0.826669 0.334278,-0.329839 0.509025,-0.81299 0.864572,-1.108594 z M 55.435009,32.436371 c 0.293386,-1.205321 1.613439,-1.474555 2.58968,-0.894093 0.469418,0.27914 0.845501,0.6817 1.284111,1.00162 0.436047,0.318122 0.917934,0.573587 1.426407,0.754019 1.010163,0.358427 2.075888,0.488745 3.143628,0.493402 2.598665,0.0114 5.144154,-0.719198 7.746668,-0.637712 2.013728,0.06307 4.151044,0.658432 5.611737,2.114707 0.787007,0.784495 1.294015,1.793083 1.565947,2.863831 0.127071,0.500424 0.221873,1.012987 0.296686,1.524378 l 0.01815,0.127806 c 0.042,0.298867 0.109102,0.615266 0.115337,0.917344 0.0057,0.271271 -0.06307,0.55514 -0.100118,0.823643 -0.07849,0.565959 -0.954788,0.501507 -1.080578,0 -0.286783,-1.141857 -0.166678,-2.320297 -0.517091,-3.458211 -0.310805,-1.009082 -0.91298,-1.891349 -1.785436,-2.494752 -3.68089,-2.545616 -8.401466,-0.413875 -12.456975,-0.611911 -0.991277,-0.04841 -1.99704,-0.201646 -2.932024,-0.543112 -0.482253,-0.176103 -0.956988,-0.390862 -1.394133,-0.660979 -0.400469,-0.247325 -0.747397,-0.558075 -1.118164,-0.844035 l -0.163564,-0.124358 c -0.254144,-0.191306 -0.686887,-0.490377 -0.943234,-0.237332 -0.111671,0.110149 -0.118455,0.359196 -0.116254,0.549384 l 0.0011,0.08594 c 0.01172,0.807434 0.176215,1.613383 -0.125789,2.393441 -0.137891,0.355805 -0.52076,0.580134 -0.884925,0.378633 l -0.01885,-0.01081 c -0.77032,-0.458453 -1.782318,0.462778 -1.190596,1.225178 l 0.01834,0.02306 c 0.332993,0.40478 0.155495,1.117615 -0.440445,1.115836 l -0.02145,-3.84e-4 c -1.061689,-0.03316 -1.532756,1.29427 -0.617576,1.874258 l 0.02806,0.01734 c 0.743,0.444826 0.09132,1.514274 -0.670204,1.147082 0.06455,0.03113 -0.04767,0.03072 -0.111853,0.116879 -0.06161,0.08274 -0.06618,0.154321 -0.05152,0.258821 0.04438,0.316654 0.322908,0.583507 0.548264,0.783834 0.512326,0.455152 1.14714,0.769423 1.801389,0.960747 2.620852,0.766471 5.30955,-0.171099 7.862923,-0.737297 2.662109,-0.590291 5.668947,-0.828063 7.990545,0.846969 0.02751,0.01982 0.0032,0.06414 -0.02713,0.04645 -1.666249,-0.967954 -3.706747,-0.882047 -5.528123,-0.485205 -2.388159,0.52043 -4.755599,1.489116 -7.20152,1.744324 0.686706,1.212691 0.97404,2.644927 0.790674,4.032093 -0.126339,0.954788 -0.506089,1.783053 -0.954787,2.62232 l -0.08563,0.159894 c -0.399922,0.753452 -0.709809,1.465095 -0.714761,2.337918 -0.0047,0.867138 -1.293463,1.049955 -1.511854,0.204637 -0.496004,-1.919294 1.310702,-3.43133 2.047834,-5.014147 0.630045,-1.353058 0.649298,-2.930575 0.139542,-4.315998 -0.57522,0.04626 -1.155024,0.0511 -1.740512,-0.0011 -0.502973,-0.04495 -1.020432,-0.135636 -1.524689,-0.27914 l -0.201886,0.848528 c -0.267164,1.130232 -0.514892,2.259748 -0.589888,3.433658 -0.05538,0.862555 -0.05245,1.729509 0.03171,2.590047 0.07262,0.743182 0.22609,1.459961 0.382318,2.185541 0.133858,0.176766 0.202253,0.447229 0.164663,0.662684 0.869521,0.25048 1.553294,0.93682 1.803222,1.845947 0.01522,0.05538 -0.06217,0.08655 -0.09113,0.03852 -0.592823,-0.983942 -2.119528,-1.346089 -3.085135,-0.696056 -0.922332,0.620694 -1.286128,1.873818 -0.764087,2.865828 0.274683,0.521677 0.681756,0.888226 1.206733,1.14072 l 0.105439,0.04952 c 0.275232,0.130189 0.527727,0.272114 0.704676,0.533779 0.229391,0.339227 0.237091,0.697708 0.215455,1.085526 l -0.0094,0.156962 c -0.01449,0.260014 -0.0178,0.527362 0.05959,0.777289 l 0.0176,0.05556 c 0.02036,0.06252 0.0418,0.117356 0.07904,0.176948 0.01118,0.01779 0.115704,0.120289 0.149627,0.157328 l 0.04291,0.01301 0.04804,0.002 c 0.05318,7.46e-4 0.123222,-0.02236 0.100302,-0.0062 l 0.0062,-0.0035 c 0.02017,-0.01267 0.0387,-0.02586 0.05428,-0.03777 l 0.02971,-0.0231 c 0.06968,-0.100485 0.156778,-0.18355 0.263498,-0.246995 l 0.102139,-0.04547 c 0.265148,-0.280001 0.719529,-0.132941 0.90968,0.146143 0.136791,0.200786 0.210505,0.404689 0.216555,0.606025 0.02127,-0.03429 0.06876,-0.05318 0.09902,-0.01467 l 0.180249,0.229756 c 0.689639,0.881441 1.367361,1.768567 2.151067,2.572077 0.431644,0.442829 0.896111,0.858887 1.381481,1.242123 0.414591,0.327126 1.200682,0.642149 1.212601,1.238087 0.0039,0.193452 -0.133491,0.330426 -0.301455,0.396256 -0.546798,0.213621 -1.222502,-0.513243 -1.617473,-0.866957 l -0.03226,-0.0286 c -0.483354,-0.423391 -0.924348,-0.888407 -1.331422,-1.385513 -0.790674,-0.96579 -1.451892,-2.077356 -1.74326,-3.300041 -0.01358,0.213439 -0.105255,0.422475 -0.283301,0.619778 -0.237276,0.262581 -0.561835,0.446679 -0.90858,0.522594 -0.785541,0.171629 -1.552561,-0.111121 -2.019961,-0.765921 -0.395135,-0.553598 -0.511389,-1.284678 -0.460414,-1.953414 l 0.0062,-0.08032 c 0.0071,-0.107265 0.01633,-0.304022 0.04401,-0.38782 l -0.247361,-0.135873 c -0.303103,-0.161364 -0.584203,-0.373151 -0.836515,-0.605659 -1.013833,-0.934984 -1.52249,-2.454722 -1.058941,-3.78431 0.289902,-0.831932 0.899045,-1.555679 1.679084,-1.931947 -0.130373,-0.301453 -0.17383,-0.659384 -0.223155,-0.976057 l -0.0083,-0.05245 c -0.08344,-0.519658 -0.153294,-1.045735 -0.179881,-1.571628 -0.04969,-0.982111 0.01081,-1.973205 0.165028,-2.943945 0.25048,-1.576582 0.769221,-3.248569 1.719792,-4.57117 -0.725228,-0.288163 -1.392864,-0.705301 -1.908123,-1.284536 -0.538547,-0.605274 -0.881807,-1.471825 -0.465382,-2.240516 0.106173,-0.195908 0.244427,-0.360625 0.40322,-0.491421 -0.275414,-0.520594 -0.364714,-1.135861 -0.19455,-1.723952 0.203168,-0.703063 0.754917,-1.251419 1.421454,-1.507471 -0.161912,-0.666133 -0.02952,-1.382636 0.465016,-1.937795 0.490505,-0.550723 1.252391,-0.751306 1.957433,-0.625426 0.03833,-0.708472 -0.184648,-1.461996 -0.01449,-2.160731 z M 53.45759,57.310994 c 0.646364,-0.31649 1.412651,-0.266248 2.058283,0.03373 l 0.04383,0.02073 c 0.705042,0.341977 1.638741,1.141086 1.414669,1.990989 -0.131107,0.496921 -0.683222,0.666719 -1.111199,0.452181 -0.357563,-0.179334 -0.439162,-0.499857 -0.618494,-0.821846 -0.12689,-0.227559 -0.283667,-0.405606 -0.467767,-0.588607 -0.388186,-0.3858 -0.824047,-0.67222 -1.319319,-0.901611 -0.07151,-0.033 -0.06894,-0.151827 0,-0.185566 z M 69.746368,40.133018 c -0.0607,-0.02769 -0.01668,-0.122618 0.04438,-0.105254 1.62444,0.464081 3.139045,1.505746 4.043956,2.951625 0.05519,0.0882 0.06363,0.233425 0,0.320726 l -0.02933,0.03964 c -0.04145,0.0542 -0.08233,0.09421 -0.160445,0.106314 -0.146694,0.02279 -0.274134,-0.01547 -0.358666,-0.145959 -0.891518,-1.378129 -2.033889,-2.477957 -3.539875,-3.167104 z m 10.87471,0.272903 c 0.137525,-0.233187 0.502424,-0.186244 0.575036,0.07519 l 0.0106,0.02274 c 0.03906,0.08913 0.02127,0.107385 -0.0519,0.05696 0.181166,0.149223 0.26313,0.371519 0.207755,0.610518 -0.29907,1.290824 -1.760498,2.212588 -3.034711,2.085716 -0.111119,-0.01105 -0.126338,-0.147757 -0.02549,-0.188537 0.490137,-0.198549 0.925266,-0.520997 1.275129,-0.916684 0.33996,-0.384629 0.482987,-0.824707 0.665984,-1.289192 0.06858,-0.174381 0.175299,-0.299933 0.32566,-0.368493 0.02,-0.02752 0.0374,-0.05685 0.0519,-0.08821 z m -7.245527,-0.829475 0.0087,5.51e-4 c 0.654617,0.08461 1.221035,0.407806 1.680734,0.881385 0.442647,0.456049 1.001545,1.208585 0.953688,1.877834 -0.03173,0.443691 -0.662319,0.697341 -0.897579,0.243272 -0.140457,-0.27096 -0.172363,-0.567939 -0.270647,-0.85445 -0.09021,-0.26258 -0.214906,-0.511903 -0.363982,-0.74575 -0.307137,-0.481757 -0.72943,-0.889895 -1.161992,-1.258148 -0.0506,-0.0431 -0.01522,-0.144473 0.05099,-0.144694 z M 56.584532,39.379804 c -0.145227,-0.138258 0.0057,-0.373975 0.190333,-0.32729 0.973858,0.246609 1.937997,0.546559 2.950361,0.576356 0.505724,0.01482 1.008514,-0.02506 1.509471,-0.09049 l 0.253595,-0.03371 c 0.390569,-0.051 0.787924,-0.09103 1.17391,-0.01081 0.257445,0.05348 0.307688,0.385196 0.147426,0.558276 -0.757486,0.817319 -2.218364,0.739186 -3.222844,0.601424 -1.090845,-0.149719 -2.19159,-0.501103 -3.002252,-1.27379 z m 17.58371,-2.547635 c -0.06675,-0.09247 0.04548,-0.23843 0.151643,-0.197392 0.967623,0.37414 1.981821,1.348254 2.248434,2.367385 0.07041,0.269237 -0.268997,0.472515 -0.468314,0.272665 -0.371318,-0.372417 -0.633532,-0.81233 -0.947454,-1.230954 -0.312823,-0.417305 -0.678822,-0.787925 -0.984309,-1.211704 z m -15.855118,0.455172 c -0.07775,-0.07758 3.67e-4,-0.232032 0.111853,-0.192572 0.630046,0.223195 1.26486,0.416333 1.926628,0.517643 0.677904,0.103698 1.362227,0.02491 2.043799,0.06693 0.275599,0.01694 0.463365,0.445964 0.156778,0.579473 -1.361677,0.593079 -3.211108,0.05529 -4.239058,-0.971474 z m 1.73996,-1.330267 c -0.108369,-0.08011 -0.04676,-0.299931 0.100487,-0.238595 0.599974,0.24989 1.206732,0.311318 1.850713,0.28561 0.237827,-0.0096 0.287886,0.364312 0.05612,0.414757 -0.711826,0.154889 -1.425671,-0.03162 -2.007307,-0.461772 z"
     fill="#000000"
     id="path12"
     style="stroke-width:1.83367" />
  <path
     fill-rule="evenodd"
     clip-rule="evenodd"
     d="m 66.842948,63.180359 c 0.0086,-0.902344 0.790308,-1.058023 1.532942,-0.937734 1.257157,0.203536 2.519083,0.346561 3.793294,0.372417 l 0.21949,0.0039 c 0.03539,-0.05152 0.09443,-0.09076 0.174748,-0.09938 0.706325,-0.07628 1.427871,-0.064 2.138048,-0.08491 0.619594,-0.01815 1.256241,-0.08013 1.875653,-0.03153 l 0.04933,0.0045 c 0.757119,0.07334 1.556045,0.459882 1.464546,1.348658 -0.08417,0.82313 -0.870622,1.551643 -1.498651,2.009143 -0.126891,0.09168 -0.256713,0.177497 -0.390386,0.255795 -0.042,0.05353 -0.103049,0.09076 -0.173833,0.09846 -0.618309,0.334094 -1.3008,0.531762 -2.007125,0.59759 -1.497735,0.13949 -3.238795,-0.01142 -4.67712,-0.66072 -0.467766,-0.211055 -0.903995,-0.474553 -1.289614,-0.798376 -0.594657,-0.499306 -1.217918,-1.256608 -1.211317,-2.077722 z m 5.900722,1.789471 c -0.60034,-0.01815 -1.199765,0.06583 -1.7715,0.251211 -0.387636,0.125056 -0.7408,0.365631 -1.112116,0.532678 1.251475,0.477486 2.705201,0.581637 3.988947,0.494723 0.563117,-0.03813 1.109182,-0.168147 1.618024,-0.391487 -0.0794,-0.05738 -0.159529,-0.115521 -0.243511,-0.166314 -0.253779,-0.15366 -0.519294,-0.2844 -0.796176,-0.388553 -0.539097,-0.202436 -1.108081,-0.314105 -1.683668,-0.332258 z m 0.201153,-7.891711 c -0.162095,-0.116254 -0.03355,-0.501506 0.31264,-0.441913 3.143627,0.540381 1.514787,5.957566 -2.498914,2.984834 -0.477852,-0.385619 0.100853,-1.235155 0.615927,-0.904912 l 0.182816,0.141191 c 0.594657,0.455849 1.578047,1.145122 2.282724,0.405423 0.665069,-0.932049 -0.277066,-1.808539 -0.895193,-2.184623 z m 2.12833,-4.099883 c 0.668187,-0.570453 1.506353,-0.149994 1.998324,0.42761 l 0.08673,0.103416 c 0.09846,0.117722 0.207387,0.255063 0.273032,0.401756 0.545147,-0.464282 1.28448,-0.791042 1.991906,-0.57907 0.686157,0.206653 1.077459,0.86182 0.959555,1.565213 -0.133673,0.800026 -0.738782,1.337839 -1.388814,1.75353 l -0.184466,0.117171 c -0.781141,0.498205 -1.512221,1.000078 -2.155286,1.684951 -0.104887,0.111303 -0.331527,0.09664 -0.400288,-0.05152 l -0.05538,-0.11937 -0.05592,-0.119188 C 75.68633,57.189792 75.19766,56.22327 74.796455,55.227408 74.499219,54.489359 74.402768,53.549975 75.073154,52.978239 Z m -7.617762,0.516725 0.101773,-0.117905 c 0.489586,-0.570084 1.319135,-0.95167 1.973386,-0.39882 0.696607,0.588973 0.559816,1.56283 0.249561,2.313897 -0.373701,0.905828 -0.810112,1.79167 -1.229471,2.680261 l -0.08948,0.190517 c -0.03779,0.0794 -0.07464,0.158796 -0.111305,0.238194 -0.06895,0.148343 -0.296318,0.163012 -0.400471,0.05172 -0.622894,-0.66342 -1.327754,-1.154291 -2.080655,-1.63691 l -0.227198,-0.144497 c -0.660851,-0.41936 -1.285581,-0.96084 -1.421454,-1.774067 -0.116255,-0.701926 0.272666,-1.36131 0.959555,-1.565398 0.709077,-0.210319 1.446759,0.114055 1.992823,0.579256 0.0651,-0.150544 0.177131,-0.292287 0.282933,-0.416242 z m 0.895927,-4.089798 c 0.239109,0.310623 -0.01633,0.81818 -0.365448,0.898494 -0.432378,0.09938 -0.869338,0.03887 -1.293832,0.16228 -0.389102,0.113137 -0.761886,0.339776 -1.095245,0.565683 -0.380302,0.25763 -0.730531,0.544965 -1.052521,0.872639 -0.191435,0.194736 -0.432562,0.656452 -0.727781,0.665069 -0.29357,0.0086 0.100486,-0.909678 0.133123,-0.989075 0.231409,-0.565685 0.556517,-1.086078 0.963224,-1.541927 0.80241,-0.899593 2.501846,-1.848696 3.43848,-0.633163 z m 8.961285,-0.248644 0.200237,0.05574 c 0.495638,0.137892 1.024832,0.307138 1.450059,0.604375 l 0.03337,0.02366 0.05152,0.03778 c 0.53378,0.398088 1.288881,1.192613 0.910781,1.885736 -0.02604,0.04767 -0.08141,0.05245 -0.125974,0.033 -0.502974,-0.220406 -0.87594,-0.660669 -1.411001,-0.844769 l -0.09865,-0.03355 c -0.518191,-0.174564 -1.159239,-0.358299 -1.717039,-0.341613 -0.392036,0.127624 -0.921782,0.022 -1.023917,-0.455663 l -0.0045,-0.02329 -0.0087,-0.04952 c -0.05885,-0.326208 0.0286,-0.742266 0.365815,-0.899594 0.462083,-0.215455 0.912981,-0.119553 1.378181,0.0077 z"
     fill="#000000"
     id="path14"
     style="stroke-width:1.83367" />
  <path
     fill-rule="evenodd"
     clip-rule="evenodd"
     d="m 65.65107,65.500125 c 0.662867,-1.553479 2.109626,-2.6953 3.775324,-3.112641 1.223052,-0.305672 2.506798,-0.295953 3.753688,-0.174565 0.653333,0.06307 1.354159,0.114787 1.969718,0.357565 0.525711,0.207205 0.954237,0.599241 1.276412,1.059306 0.383418,0.545147 0.644348,1.169142 0.827348,1.808723 0.02604,0.09077 0.0506,0.182449 0.07335,0.274499 -0.07959,0.48262 -0.248645,0.893176 -0.695507,1.196648 -0.435861,0.296136 -0.956072,0.41734 -1.474631,0.460432 -0.05099,-0.02438 -0.100119,-0.04952 -0.145042,-0.07518 -0.808095,-0.462817 -1.376897,-1.556412 -2.39678,-1.408434 -0.91023,0.132206 -1.50947,1.277877 -2.050765,1.949731 -1.737394,0.202435 -3.473689,-0.319792 -4.887258,-1.313818 -0.07188,-0.340145 -0.07609,-0.683223 -0.02586,-1.022266 z m 12.856713,-1.178494 c -0.138991,-0.390203 -0.314105,-0.768121 -0.521676,-1.124035 -0.685972,-1.177394 -1.739045,-2.115495 -2.989235,-2.651658 -2.957511,-1.266876 -6.783995,-0.373883 -9.172339,1.703839 -0.815796,0.710176 -1.640759,1.753896 -1.890321,2.876463 -0.07445,0.01486 -0.144675,0.05354 -0.202619,0.108186 -1.725475,-1.086811 -3.502477,-2.132547 -4.892941,-3.639083 -1.009798,-1.094514 -1.712274,-2.389995 -2.142267,-3.813466 -0.0352,-0.117172 -0.224074,-0.09994 -0.218389,0.02971 0.0017,0.03025 0.0032,0.06051 0.005,0.09095 -0.01797,-0.05574 -0.103049,-0.02713 -0.109653,0.02696 -0.231408,1.729327 -0.52076,3.56262 -0.254145,5.300931 0.159346,1.037119 0.630412,1.796439 1.259909,2.616452 0.674603,0.878874 1.438324,1.69632 2.219096,2.480209 0.495456,0.497657 1.013098,1.071591 1.619672,1.436491 0.705778,0.423942 1.506171,0.746118 2.259256,1.07324 0.766102,0.333728 1.543759,0.641967 2.336083,0.909315 1.583734,0.536162 3.220643,0.906928 4.886158,1.069207 1.333621,0.129457 2.85776,0.270648 4.135638,-0.231225 0.979542,-0.384518 1.770217,-1.079843 2.397328,-1.916175 C 77.915,69.756969 78.454828,68.7193 78.753166,67.625154 79.063238,66.48865 78.5731,64.504997 78.507822,64.321631 Z"
     fill="#000000"
     id="path16"
     style="stroke-width:1.83367" />
</svg>
