<?xml version="1.0" encoding="UTF-8" standalone="no"?>
<svg
   width="434"
   height="511"
   viewBox="0 0 434 511"
   version="1.1"
   id="svg31"
   sodipodi:docname="intro.svg"
   style="fill:none"
   inkscape:version="1.1.1 (3bf5ae0d25, 2021-09-20)"
   xmlns:inkscape="http://www.inkscape.org/namespaces/inkscape"
   xmlns:sodipodi="http://sodipodi.sourceforge.net/DTD/sodipodi-0.dtd"
   xmlns="http://www.w3.org/2000/svg"
   xmlns:svg="http://www.w3.org/2000/svg"
   xmlns:rdf="http://www.w3.org/1999/02/22-rdf-syntax-ns#"
   xmlns:cc="http://creativecommons.org/ns#"
   xmlns:dc="http://purl.org/dc/elements/1.1/">
  <metadata
     id="metadata37">
    <rdf:RDF>
      <cc:Work
         rdf:about="">
        <dc:format>image/svg+xml</dc:format>
        <dc:type
           rdf:resource="http://purl.org/dc/dcmitype/StillImage" />
      </cc:Work>
    </rdf:RDF>
  </metadata>
  <defs
     id="defs35" />
  <sodipodi:namedview
     pagecolor="#ffffff"
     bordercolor="#666666"
     borderopacity="1"
     objecttolerance="10"
     gridtolerance="10"
     guidetolerance="10"
     inkscape:pageopacity="0"
     inkscape:pageshadow="2"
     inkscape:window-width="3440"
     inkscape:window-height="1377"
     id="namedview33"
     showgrid="false"
     inkscape:zoom="1"
     inkscape:cx="389.5"
     inkscape:cy="428.5"
     inkscape:window-x="-8"
     inkscape:window-y="-8"
     inkscape:window-maximized="1"
     inkscape:current-layer="svg31"
     inkscape:pagecheckerboard="0" />
  <path
     d="m 202.328,512.058 c -110.457,0 -200,-89.543 -200,-200 0,-110.457 89.543,-200 200,-200 110.457,0 200,89.543 200,200 0,110.457 -89.543,200 -200,200 z"
     id="path2"
     inkscape:connector-curvature="0"
     style="opacity:0.16;fill:#855ffb" />
  <path
     d="m 386.328,0.058 -48,48 48,48 48,-48 z"
     id="path4"
     inkscape:connector-curvature="0"
     style="clip-rule:evenodd;opacity:0.16;fill:#feca2f;fill-rule:evenodd" />
  <mask
     id="mask0"
     mask-type="alpha"
     maskUnits="userSpaceOnUse"
     x="86"
     y="102"
     width="630"
     height="637">
    <path
       d="m 246.99,603.517 c 88.825,74.533 221.18,63.034 295.623,-25.684 L 715.04,372.343 393.377,102.435 220.95,307.926 c -74.443,88.718 -62.784,221.058 26.04,295.591 z"
       id="path6"
       inkscape:connector-curvature="0"
       style="fill:#ffffff" />
  </mask>
  <g
     mask="url(#mask0)"
     id="g29"
     transform="matrix(-1,0,0,1,584.656,-147)">
    <path
       d="m 496.073,276.457 c 6.234,21.185 -5.999,68.447 -20.424,68.646 -5.752,0.079 -16.593,-5.871 -26.832,-15.37 l -4.114,51.618 -43.746,-10.099 30.49,-63.363 c -6.231,-11.326 -9.259,-24.142 -5.333,-36.813 11.312,-36.511 63.724,-15.804 69.959,5.381 z"
       id="path9"
       inkscape:connector-curvature="0"
       style="clip-rule:evenodd;fill:#915b3c;fill-rule:evenodd" />
    <path
       d="m 409.896,254.309 c -1.105,-1.66 -1.436,-3.741 -1.686,-5.702 -0.259,-2.036 -0.494,-4.088 -0.502,-6.148 -0.018,-4.116 1.01,-8.607 4.635,-10.963 2.906,-1.89 6.678,-2.167 9.98,-1.654 2.201,0.341 4.357,1.143 6.281,2.271 1.91,1.119 3.388,2.813 5.199,4.07 1.047,-4.189 2.82,-8.416 5.891,-11.491 2.955,-2.958 6.841,-4.103 10.876,-3.712 4.141,0.401 7.903,2.213 11.074,4.897 0.794,0.672 1.574,1.364 2.301,2.111 0.609,0.626 1.224,1.353 2.02,1.734 0.887,0.425 1.47,0.018 2.228,-0.492 0.889,-0.597 1.847,-1.083 2.834,-1.482 4.365,-1.762 9.546,-1.705 13.535,0.876 1.839,1.19 3.504,2.874 4.473,4.888 0.863,1.795 1.174,4.399 2.604,5.841 0.607,0.612 1.246,0.134 1.994,-0.155 1.124,-0.435 2.219,-0.949 3.35,-1.363 1.59,-0.583 3.241,-0.911 4.924,-0.894 2.464,0.024 5.677,0.894 5.672,3.973 -0.002,1.156 -0.466,2.286 -0.803,3.374 -0.462,1.494 -0.93,2.986 -1.418,4.472 -0.372,1.127 -0.762,2.209 -1.251,3.288 -0.261,0.575 -0.902,1.611 -0.77,2.278 0.165,0.833 1.831,0.766 2.494,0.946 1.31,0.357 2.586,0.885 3.684,1.705 0.851,0.635 1.706,1.478 1.867,2.604 0.099,0.692 -0.116,1.329 -0.383,1.956 -0.321,0.752 -0.257,1.204 -0.336,2.02 1.967,-0.423 8.546,-0.852 8.621,2.356 0.025,1.068 -0.825,2.073 -1.469,2.82 -1.13,1.311 -2.475,2.437 -3.827,3.495 -2.822,2.206 -5.984,3.941 -9.266,5.292 2.981,2.161 2.891,6.486 -0.537,8.284 -1.514,0.793 -3.268,0.643 -4.845,0.206 -0.577,-0.161 -1.369,-0.568 -1.85,-0.577 -0.259,-0.005 -0.569,0.133 -0.917,0.076 -2.282,-0.372 -4.701,-1.474 -6.79,-2.457 -3.721,-1.751 -7.021,-4.373 -9.428,-7.764 -0.617,-0.869 -1.167,-1.415 -2.215,-1.646 -0.918,-0.203 -1.872,-0.171 -2.793,-0.36 -2.435,-0.5 -4.358,-2.132 -6.434,-3.402 -0.806,2.862 -2.407,5.848 -4.25,8.164 -1.504,1.888 -3.691,1.708 -5.814,1.414 -6.788,-0.94 -13.308,-3.145 -19.969,-4.674 6.126,2.876 12.654,4.985 18.666,8.093 2.718,1.404 0.085,2.748 -1.447,3.748 -2.521,1.646 -4.638,3.919 -6.324,6.438 -2.25,-4.642 -7.228,-8.507 -12.443,-8.445 -5.763,0.069 -11.226,6.207 -8.904,12.063 1.349,3.4 4.745,5.376 7.498,7.339 -2.917,1.802 -4.293,5.141 -6.397,7.735 -1.038,1.279 -2.403,2.682 -4.096,2.82 -0.626,0.052 -1.313,-0.09 -1.878,0.256 -0.699,0.429 -0.979,1.024 -1.818,1.338 -3.348,1.252 -7.85,0.056 -9.845,-3.047 -1.804,-2.806 -0.37,-6.257 2.106,-8.108 -2.811,-1.943 -8.085,-4.824 -5.795,-9.131 -6.608,-1.972 -20.498,-16.087 -9.751,-21.576 -4.326,-3.798 -7.364,-11.342 -2.869,-16.336 3.461,-3.845 9.598,-4.505 14.313,-3.662 z"
       id="path11"
       inkscape:connector-curvature="0"
       style="clip-rule:evenodd;fill:#191847;fill-rule:evenodd" />
    <path
       d="M 337.697,488.332 243.16,705.948 173.096,866.02 200.597,889.095 414.514,552.789 Z"
       id="path13"
       inkscape:connector-curvature="0"
       style="clip-rule:evenodd;fill:#191847;fill-rule:evenodd" />
    <path
       d="M 323.877,476.735 C 247.321,565.544 202.141,611.11 194.039,618.217 185.937,625.323 123.403,661.31 6.437,726.176 L 34.9256,750.08 C 158.649,697.514 228.286,667.488 243.838,660.003 259.39,652.518 317.284,617.621 414.67,552.919 Z"
       id="path15"
       inkscape:connector-curvature="0"
       style="clip-rule:evenodd;fill:#2f3676;fill-rule:evenodd" />
    <path
       d="M -16.7958,748.692 8.76379,721.126 38.6974,746.243 c 6.1489,21.498 18.1668,44.808 36.0537,69.93 l -4.597,5.479 -54.1655,-45.451 -16.231854,-18.288 -2.298496,2.74 z"
       id="path17"
       inkscape:connector-curvature="0"
       style="clip-rule:evenodd;fill:#191847;fill-rule:evenodd" />
    <path
       d="m 264.403,443.827 34.821,17.147 c -54.221,56.5 -83.19,86.381 -86.906,89.643 -8.362,7.341 -7.04,25.377 -7.227,34.632 -13.779,-0.644 -3.699,-18.233 -21.201,-18.799 -15.976,-0.517 -31.141,5.268 -41.894,-11.124 -1.323,-2.015 -1.33,-7.179 5.189,-8.032 16.241,-2.125 40.869,-7.696 45.541,-11.205 6.371,-4.785 30.263,-35.539 71.677,-92.262 z m 205.086,98.418 34.872,63.651 c 12.61,10.799 22.398,21.357 29.362,31.672 1.308,3.126 2.089,8.546 -7.06,3.212 -9.15,-5.333 -19.007,-10.548 -21.839,-8.066 -2.831,2.481 1.093,9.014 -3.608,11.932 -3.134,1.946 -8.041,-9.159 -14.721,-33.313 l -42.454,-46.79 z"
       id="path19"
       inkscape:connector-curvature="0"
       style="clip-rule:evenodd;fill:#915b3c;fill-rule:evenodd" />
    <path
       d="m 432.339,351.123 15.599,4.655 c 31.814,70.706 12.037,167.086 55.557,244.478 l -25.007,11.167 C 371.226,542.287 393.952,424.045 432.339,351.123 Z"
       id="path21"
       inkscape:connector-curvature="0"
       style="clip-rule:evenodd;fill:#e87613;fill-rule:evenodd" />
    <path
       d="m 284.154,495.238 c 57.88,28.23 100.455,48.995 127.725,62.296 5.837,2.846 8.698,-5.811 9.853,-10.32 13.33,-52.044 0.185,-121.564 33.02,-188.886 l -34.127,-23.536 c -53.507,32.364 -92.404,85.37 -136.471,160.446 z"
       id="path23"
       inkscape:connector-curvature="0"
       style="clip-rule:evenodd;fill:#dde3e9;fill-rule:evenodd" />
    <path
       d="m 417.851,333.439 c 1.244,0.607 2.348,1.238 3.31,1.893 l 11.23,6.264 c -19.617,124.207 -45.658,200.76 -78.12,229.658 l -100.532,-49.03 c -12.483,10.478 -23.674,18.958 -33.572,25.44 l -27.393,-13.36 c 36.599,-81.582 89.668,-140.091 159.208,-175.528 -4.628,-4.09 -7.18,-9.614 -7.655,-16.57 -2.046,-29.981 9.105,-40.5 25.562,-37.719 16.457,2.782 25.034,17.769 47.962,28.952 z"
       id="path25"
       inkscape:connector-curvature="0"
       style="clip-rule:evenodd;fill:#ff9b21;fill-rule:evenodd" />
    <path
       d="m 291.049,540.418 -37.308,-18.195 c 14.562,-12.223 30.882,-27.164 48.961,-44.824 -9.27,27.031 -13.155,48.038 -11.653,63.019 z"
       id="path27"
       inkscape:connector-curvature="0"
       style="clip-rule:evenodd;fill:#000000;fill-opacity:0.1;fill-rule:evenodd" />
  </g>
</svg>
