<?xml version="1.0" encoding="UTF-8" standalone="no"?>
<svg
   width="400"
   height="210"
   viewBox="0 0 400 210"
   fill="none"
   version="1.1"
   id="svg26"
   sodipodi:docname="intro-lights.svg"
   inkscape:version="1.1.1 (3bf5ae0d25, 2021-09-20)"
   xmlns:inkscape="http://www.inkscape.org/namespaces/inkscape"
   xmlns:sodipodi="http://sodipodi.sourceforge.net/DTD/sodipodi-0.dtd"
   xmlns="http://www.w3.org/2000/svg"
   xmlns:svg="http://www.w3.org/2000/svg">
  <sodipodi:namedview
     id="namedview28"
     pagecolor="#ffffff"
     bordercolor="#666666"
     borderopacity="1.0"
     inkscape:pageshadow="2"
     inkscape:pageopacity="0.0"
     inkscape:pagecheckerboard="0"
     showgrid="false"
     width="166px"
     inkscape:zoom="4.1571429"
     inkscape:cx="231.52921"
     inkscape:cy="105"
     inkscape:window-width="3440"
     inkscape:window-height="1377"
     inkscape:window-x="-8"
     inkscape:window-y="-8"
     inkscape:window-maximized="1"
     inkscape:current-layer="svg26" />
  <g
     clip-path="url(#clip0_8390_80742)"
     id="g8"
     transform="translate(234)">
    <path
       fill-rule="evenodd"
       clip-rule="evenodd"
       d="m 49.5,209.673 c 23.4721,0 42.5,-10.073 42.5,-22.5 0,-12.426 -19.0279,-22.5 -42.5,-22.5 -23.4721,0 -42.5,10.074 -42.5,22.5 0,12.427 19.0279,22.5 42.5,22.5 z"
       fill="#f2f2f2"
       id="path2" />
    <path
       fill-rule="evenodd"
       clip-rule="evenodd"
       d="m 99,202.673 c 0,-27.614 -22.1619,-50 -49.5,-50 -27.3381,0 -49.5,22.386 -49.5,50"
       fill="#dde3e9"
       id="path4" />
    <rect
       x="47"
       width="5"
       height="160"
       fill="#dde3e9"
       id="rect6"
       y="0" />
  </g>
  <g
     opacity="0.7"
     clip-path="url(#clip1_8390_80742)"
     id="g16"
     transform="translate(234)">
    <path
       fill-rule="evenodd"
       clip-rule="evenodd"
       d="m 128,159 c 17.545,0 31.768,-8.13 31.768,-18.158 0,-10.028 -14.223,-18.158 -31.768,-18.158 -17.545,0 -31.7676,8.13 -31.7676,18.158 C 96.2324,150.87 110.455,159 128,159 Z"
       fill="#f2f2f2"
       id="path10" />
    <path
       fill-rule="evenodd"
       clip-rule="evenodd"
       d="M 165,153.351 C 165,131.066 148.435,113 128,113 c -20.435,0 -37,18.066 -37,40.351"
       fill="#dde3e9"
       id="path12" />
    <rect
       x="126"
       width="5"
       height="136"
       fill="#dde3e9"
       id="rect14"
       y="0" />
  </g>
  <defs
     id="defs24">
    <clipPath
       id="clip0_8390_80742">
      <rect
         width="99"
         height="210"
         fill="#ffffff"
         id="rect18"
         x="0"
         y="0" />
    </clipPath>
    <clipPath
       id="clip1_8390_80742">
      <rect
         width="74"
         height="159"
         fill="#ffffff"
         transform="translate(91)"
         id="rect21"
         x="0"
         y="0" />
    </clipPath>
  </defs>
</svg>
