<?xml version="1.0" encoding="UTF-8"?>
<svg width="32" height="32" version="1.1" viewBox="0 0 32 32" xmlns="http://www.w3.org/2000/svg" xmlns:cc="http://creativecommons.org/ns#" xmlns:dc="http://purl.org/dc/elements/1.1/" xmlns:rdf="http://www.w3.org/1999/02/22-rdf-syntax-ns#">
 <title>window earth icon</title>
 <desc>window earth icon from the IconExperience.com G-Collection. Copyright by INCORS GmbH (www.incors.com).</desc>
 <g transform="scale(.0625)">
  <path d="m512 80v384h-512v-384c0-8.8 7.2-16 16-16h480c8.8 0 16 7.2 16 16z" fill="#28b5f5"/>
  <path d="m512 80v384h-512l506.7-395.85c3.25 2.9 5.3 7.15 5.3 11.85z" fill="#0299e3"/>
  <polygon points="512 464 0 464 0 128 512 128" fill="#dff3fd"/>
  <polygon points="512 464 0 464 430.1 128 512 128" fill="#b1e3fb"/>
  <path d="m478.8 89.95c0.8 1.85 1.2 3.9 1.2 6.05 0 8.85-7.15 16-16 16-3.55 0-6.8-1.15-9.45-3.1z" fill="#b1e3fb"/>
  <path d="m416 80c8.85 0 16 7.15 16 16s-7.15 16-16 16-16-7.15-16-16 7.15-16 16-16zm48 0c8.85 0 16 7.15 16 16s-7.15 16-16 16-16-7.15-16-16 7.15-16 16-16z" fill="#dff3fd"/>
  <path d="m256 144c79.55 0 144 64.45 144 144s-64.45 144-144 144-144-64.45-144-144 64.45-144 144-144z" fill="#429f46"/>
  <path d="m356.85 185.2c26.6 26.15 43.15 62.55 43.15 102.8 0 79.55-64.45 144-144 144-52.9 0-99.1-28.5-124.15-71z" fill="#3a803d"/>
  <path d="m290.45 231.1c3.75-1.35 9.3-1.6 11.35-0.85 10.1 3.5 9.6 13.9 20.05 15.65 1.2 0.2 6.6-3.1 7.85-2.9 6.35 1.15 12.45 7.15 18.05 4.35 3.3-1.7 5.05-8 2.1-10.3-2.9-2.15-7.35-0.55-10.5-2.8-4.65-3.3-8.5 1.3-12.35-3.15-1.75-2-4.85-8.25-7.15-11.55-2.45-3.55-9.85-2.1-8.65-0.5 3.8 5.1 9.4 5.9 10.1 8.75 0.8 3.05-7.2 7.15-5.05 1.55 1.1-2.9-4.6-4.75-11.2-8.2-3.45-1.8-6.85-6.5-12.05-4-2.6 1.25-7.45 7.35-9.4 10.25-3.35 5-10.9 3.65-15.95 1.15-5-2.4-5.15-14.55 1.4-19.8 6.2-5.05 11.3-2 17.4-3.7 2.45-0.7 3.7-3.35 7.4-5.85 4.4-3-2.7-7.65-0.35-12.4 1.95-3.9 8.4-4.7 11.75-6.35 3.2-1.6 6.8-4.25 10.3-2.2 4.8 2.9 10.05 3.15 14.8 6.1 1.3 0.85 2.55 1.6 3.8 2.25-17.8-13.7-39.25-22.85-62.7-25.65 2.55 3.5 4.25 7.35 3.1 9.95-2.2 4.9-5.35 10.95-14.85 14.5-7 2.6-16.2 2.7-23.25 5.75-7.25 3.15-14.5 2.9-18.7 3.9-6.6 1.5 0.3-21.6-1.6-24.2-1.1-1.45-4.25-1.9-7.85-1.65-5 2-9.9 4.35-14.55 6.95-1.85 8.4 5.2 15.3 4.85 17-0.7 3.55-0.6 17.5-3.95 21.1-5.05 5.5-17.95 10.45-19.7 10.7-8.35 1.15-10.3 9.7-16.55 14.7-2.6 2.1-15.9 16.05-18 20.35-5.75 11.75-0.15 19.25 2.5 21.6 4.5 4.05 6.35 4.5 11.35 6.05 1.95 0.6 20.9 10.35 26.1 15.65 5.2 5.4 7.85 11 13.1 14.2 6.4 3.85 18 8.25 19.55 11.2 7 13.6 4.65 32.6-15.35 46.1-5.2 3.5-15.8 9.2-13.15 18.85 0.05 0.2 0.1 0.45 0.15 0.65 20.4 13.7 44.95 21.7 71.35 21.7 70.7 0 128-57.3 128-128 0-7.2-0.6-14.3-1.75-21.2-0.95 2.65-1.55 6.9-3.25 9.75-2 3.35-6.5 3.75-7.2 4.7-4.85 6.6 11.3 11.85 4.3 20.95-3 3.95-12.15 12.75-14.6 24.15-5.2 24.25-1.8 9.6-9.55 29-1.2 2.9-3.25 14.05-4.9 16.55-7.45 11.35-28.5 24.25-33.6 17.75-3-3.8-4.8-9.5-5.75-14.95-0.95-5.4-6.65-12.4-6.05-16.7 0.85-6.7 1.4-8.85 1.55-16.55 0-0.35-4.6-19-5.35-20.6-3.45-7.35-9.1-10.65-17.05-7.9-6.2 2.15-11.4-0.95-16.35-2.95-9.8-4-14.35-16.8-16.4-27.25 0-0.05 1.5-16.45 1.55-17.3 0.3-4.35 2.3-8.45 4.65-11.75 17.6-25.25 13.5-14.45 36.2-22.6zm-130.5 141.5c-19.75-22.4-31.75-51.75-31.95-83.85 2.2 4.5 3.65 9.3 4.25 13.9 0.75 5.85 5 16.65 6.2 24.05 1.3 8.15 7.65 14.6 14.6 22.55 3.35 3.85 4.1 16.4 6.9 23.35z" fill="#4ec1f5"/>
  <path d="m299.7 229.9c0.85 0.05 1.6 0.15 2.1 0.35 10.1 3.5 9.6 13.9 20.05 15.65 1.2 0.2 6.6-3.1 7.85-2.9 6.35 1.15 12.45 7.15 18.05 4.35 3.3-1.7 5.05-8 2.1-10.3-2.9-2.15-7.35-0.55-10.5-2.8-4.65-3.3-8.5 1.3-12.35-3.15-1.75-2-4.85-8.25-7.15-11.55-0.95-1.35-2.6-2-4.2-2.15l-3.55 2.75c3.75 4.15 8.55 5.05 9.2 7.65 0.8 3.05-7.2 7.15-5.05 1.55 0.9-2.35-2.7-4.05-7.65-6.45zm-109.25 85.3c0.9 0.85 1.9 1.65 3 2.3 6.4 3.85 18 8.25 19.55 11.2 7 13.6 4.65 32.6-15.35 46.1-5.2 3.5-15.8 9.2-13.15 18.85 0.05 0.2 0.1 0.45 0.15 0.65 20.4 13.7 44.95 21.7 71.35 21.7 70.7 0 128-57.3 128-128 0-7.2-0.6-14.3-1.75-21.2-0.95 2.65-1.55 6.9-3.25 9.75-2 3.35-6.5 3.75-7.2 4.7-4.85 6.6 11.3 11.85 4.3 20.95-3 3.95-12.15 12.75-14.6 24.15-5.2 24.25-1.8 9.6-9.55 29-1.2 2.9-3.25 14.05-4.9 16.55-7.45 11.35-28.5 24.25-33.6 17.75-3-3.8-4.8-9.5-5.75-14.95-0.95-5.4-6.65-12.4-6.05-16.7 0.85-6.7 1.4-8.85 1.55-16.55 0-0.35-4.6-19-5.35-20.6-3.45-7.35-9.1-10.65-17.05-7.9-6.2 2.15-11.4-0.95-16.35-2.95-9.8-4-14.35-16.8-16.4-27.25 0-0.05 0.75-8.4 1.2-13.5zm-45.85 35.85 5.95-4.65c0.8 0.95 1.65 1.9 2.5 2.85 3.35 3.85 4.1 16.4 6.9 23.35-5.85-6.6-11-13.85-15.35-21.55z" fill="#0299e3"/>
 </g>
 <metadata>
  <rdf:RDF>
   <cc:Work rdf:about="">
    <dc:title>window earth icon</dc:title>
   </cc:Work>
  </rdf:RDF>
 </metadata>
</svg>
